{
  "componentVariants" : [ {
    "id" : "a123e4be-eecf-41f8-947d-200a3f7865aa",
    "propertyOverrides" : {
      "activeViewId" : "8d8957c8-48f6-43c5-9a9c-e7c3b82af7a9"
    },
    "targetId" : "69593aa1-8bbf-4a4f-8741-35bce86f71e3",
    "type" : "componentVariant"
  } ],
  "developerName" : "Contrat1_Dtails_Contract_Shared_Summary_Page",
  "id" : "7b4daa19-c006-4380-9c0a-d3691a922464",
  "type" : "experienceVariation"
}