{
  "activeViewId" : "abd8a321-2833-4ce0-83ba-40a623c2641f",
  "appPageId" : "63d16848-c106-4c0c-8e45-da8e705cdeb9",
  "configurationTags" : [ ],
  "id" : "a04ae735-6cda-4d9a-b39c-fcf1408a08cf",
  "label" : "Admin Data Modification",
  "pageAccess" : "UseParent",
  "routeType" : "custom-admin-data-modification",
  "type" : "route",
  "urlPrefix" : "admin-data-modification"
}