{
  "activeViewId" : "491d68a1-a520-4018-8a2a-9caf6ff92ffe",
  "appPageId" : "63d16848-c106-4c0c-8e45-da8e705cdeb9",
  "configurationTags" : [ ],
  "id" : "a902720c-fee4-48ea-bca8-11ea48407d61",
  "label" : "Admin Info Edit Menu",
  "pageAccess" : "UseParent",
  "routeType" : "custom-admin-info-edit-menu",
  "type" : "route",
  "urlPrefix" : "admin-info-edit-menu"
}