{
  "activeViewId" : "e4a4790b-48be-4e59-9aef-931085c7fb21",
  "appPageId" : "63d16848-c106-4c0c-8e45-da8e705cdeb9",
  "configurationTags" : [ ],
  "id" : "0259676f-d7d2-47da-a139-ffa7c5407797",
  "label" : "Alerte Métier Détails",
  "objectApiName" : "ULiT_Negoptim__Store_cases__c",
  "routeType" : "detail-a1a",
  "type" : "route",
  "urlPrefix" : "test/store-cases"
}