{
  "activeViewId" : "20b03c11-8069-47b4-93be-099564303841",
  "appPageId" : "63d16848-c106-4c0c-8e45-da8e705cdeb9",
  "configurationTags" : [ ],
  "id" : "f759d0a3-eccc-4b64-b213-35822b857d2b",
  "label" : "Alerte Métier Liste associée",
  "objectApiName" : "ULiT_Negoptim__Store_cases__c",
  "routeType" : "relatedlist-a1a",
  "type" : "route",
  "urlPrefix" : "test/store-cases"
}