{
  "activeViewId" : "03449891-6da4-4664-8076-7a2c310c2b6b",
  "appPageId" : "63d16848-c106-4c0c-8e45-da8e705cdeb9",
  "configurationTags" : [ ],
  "id" : "63087c43-59f8-4678-9266-40ccd51508f8",
  "label" : "Carousel Liste",
  "objectApiName" : "cloudx_cms__SS_Carousel__c",
  "routeType" : "list-a1u",
  "type" : "route",
  "urlPrefix" : "ss-carousel"
}