{
  "activeViewId" : "08c1426b-be2d-4063-988d-196094f811aa",
  "appPageId" : "63d16848-c106-4c0c-8e45-da8e705cdeb9",
  "configurationTags" : [ ],
  "id" : "66df38dd-edfc-4137-9434-36a11a99967a",
  "label" : "Carousel Liste associée",
  "objectApiName" : "cloudx_cms__SS_Carousel__c",
  "routeType" : "relatedlist-a1u",
  "type" : "route",
  "urlPrefix" : "ss-carousel"
}