{
  "activeViewId" : "f59fa33e-94f8-42fe-9986-da0f9a627f23",
  "appPageId" : "63d16848-c106-4c0c-8e45-da8e705cdeb9",
  "configurationTags" : [ ],
  "id" : "0b4613e2-1d9a-4e32-a41f-49b86520c676",
  "label" : "CDR",
  "pageAccess" : "UseParent",
  "routeType" : "custom-cdr-menu",
  "type" : "route",
  "urlPrefix" : "cdr"
}