{
  "activeViewId" : "9ce0059d-f829-44f9-a9e5-cba1317cda73",
  "appPageId" : "63d16848-c106-4c0c-8e45-da8e705cdeb9",
  "configurationTags" : [ ],
  "id" : "b26bc2cc-23dd-4c87-a4dc-fdc141d9f29b",
  "label" : "Contract - Sales Conditions Exception Détails",
  "objectApiName" : "ULiT_Negoptim__Pol_Sale_Condition_Exception__c",
  "routeType" : "detail-a1L",
  "type" : "route",
  "urlPrefix" : "pol-sale-condition-exception"
}