{
  "activeViewId" : "c85bd86b-b2ac-4a23-b0fe-5b634dc92c4d",
  "appPageId" : "63d16848-c106-4c0c-8e45-da8e705cdeb9",
  "configurationTags" : [ ],
  "id" : "8343340e-dc50-4c75-aecd-defb5253f9ca",
  "label" : "Contract Documents",
  "pageAccess" : "UseParent",
  "routeType" : "custom-contract-documents",
  "type" : "route",
  "urlPrefix" : "contract-documents"
}