{
  "activeViewId" : "86ed354d-e202-47ed-b300-5420f50047d1",
  "appPageId" : "63d16848-c106-4c0c-8e45-da8e705cdeb9",
  "configurationTags" : [ ],
  "id" : "7a2ee3ca-1c45-4263-9da2-203bc1cdb3d6",
  "label" : "Contact Ops Directory Header",
  "pageAccess" : "UseParent",
  "routeType" : "custom-contact-ops-directory-header",
  "type" : "route",
  "urlPrefix" : "contact-ops-directory-header"
}