{
  "activeViewId" : "2ae757e9-dcfb-4d69-8c2b-fd9277126060",
  "appPageId" : "63d16848-c106-4c0c-8e45-da8e705cdeb9",
  "configurationTags" : [ ],
  "id" : "abd71bb9-eb47-4708-b3ac-3c38291abbe3",
  "label" : "Create Record",
  "routeType" : "createrecord",
  "type" : "route",
  "urlPrefix" : "createrecord"
}