{
  "activeViewId" : "2a0fa40f-f61b-4712-b454-bdb16311624d",
  "appPageId" : "63d16848-c106-4c0c-8e45-da8e705cdeb9",
  "configurationTags" : [ ],
  "id" : "c44f092d-ce32-40b9-9ee3-03438c249987",
  "label" : "Documents Center",
  "pageAccess" : "UseParent",
  "routeType" : "custom-documents-center",
  "type" : "route",
  "urlPrefix" : "documents-center"
}