{
  "activeViewId" : "bf59c4ed-39c4-422f-be9a-96402c71f19d",
  "appPageId" : "63d16848-c106-4c0c-8e45-da8e705cdeb9",
  "configurationTags" : [ ],
  "id" : "d9a1ad7f-7730-429d-b7a2-aeda2323e78f",
  "label" : "Déclaration des PAN en-tête",
  "pageAccess" : "RequiresLogin",
  "routeType" : "custom-your-inputs",
  "type" : "route",
  "urlPrefix" : "declaration-PAN"
}