{
  "activeViewId" : "36c21a7e-460d-4b70-a80c-18d23d4d1830",
  "appPageId" : "63d16848-c106-4c0c-8e45-da8e705cdeb9",
  "configurationTags" : [ ],
  "id" : "b5c16971-4f9d-4cf7-8aa9-9d07977ebe91",
  "label" : "Error",
  "pageAccess" : "UseParent",
  "routeType" : "error",
  "type" : "route",
  "urlPrefix" : "error"
}