{
  "activeViewId" : "6bc91bef-7ed7-4fec-bd46-fc31ea1193d6",
  "appPageId" : "63d16848-c106-4c0c-8e45-da8e705cdeb9",
  "configurationTags" : [ ],
  "id" : "3a019377-61ce-4e34-8d61-ac5b7ab3036e",
  "label" : "Lieux - Fonctions Détails",
  "objectApiName" : "ULiT_Negoptim__Global_Location__c",
  "routeType" : "detail-a0l",
  "type" : "route",
  "urlPrefix" : "lieux-fonction-en-tte/global-location"
}