{
  "activeViewId" : "5ccdadce-5efa-4155-ad34-79c7b9339b49",
  "appPageId" : "d96b0cdb-bb34-487c-bb89-d6987920114d",
  "configurationTags" : [ ],
  "id" : "412b412b-c9b6-4297-bbca-6208d921a41f",
  "label" : "Login Error",
  "routeType" : "login-error",
  "type" : "route",
  "urlPrefix" : "error"
}