{
  "activeViewId" : "1d731f74-ae1a-4e34-9798-b49f7d0181c6",
  "appPageId" : "63d16848-c106-4c0c-8e45-da8e705cdeb9",
  "configurationTags" : [ ],
  "id" : "e3dcde38-5e55-4e6d-b525-0c7ff7c11b82",
  "label" : "Modèles de fichier vierge Détails",
  "objectApiName" : "SPITM_Blank_templates_to_complete__c",
  "routeType" : "detail-a24",
  "type" : "route",
  "urlPrefix" : "spitm-blank-templates-to-complete"
}