{
  "activeViewId" : "b8095971-2dba-4ada-ae34-409b42a549bc",
  "appPageId" : "63d16848-c106-4c0c-8e45-da8e705cdeb9",
  "configurationTags" : [ ],
  "id" : "418e7983-3d3e-4a4c-b7dc-d7ebb29b290d",
  "label" : "Modèles de fichier vierge Liste associée",
  "objectApiName" : "SPITM_Blank_templates_to_complete__c",
  "routeType" : "relatedlist-a24",
  "type" : "route",
  "urlPrefix" : "spitm-blank-templates-to-complete"
}