{
  "activeViewId" : "f28d5ec1-9585-4166-bf73-2113b4979d5f",
  "appPageId" : "63d16848-c106-4c0c-8e45-da8e705cdeb9",
  "configurationTags" : [ ],
  "id" : "8cabbdfd-1843-4ef4-b78f-27d19493c914",
  "label" : "My Commercial Collabs Menu Page",
  "pageAccess" : "UseParent",
  "routeType" : "custom-my-commercial-collabs-menu-page",
  "type" : "route",
  "urlPrefix" : "my-commercial-collabs-menu-page"
}