{
  "activeViewId" : "b657b1ce-884a-41f9-acc8-e016e975e35a",
  "appPageId" : "63d16848-c106-4c0c-8e45-da8e705cdeb9",
  "configurationTags" : [ ],
  "id" : "fbd1abc3-7d87-4926-a022-a6f36df16828",
  "label" : "Nego Scope (Périmètre accord) Liste",
  "objectApiName" : "ULiT_Negoptim__Sup_sup_NegoScope__c",
  "routeType" : "list-a1i",
  "type" : "route",
  "urlPrefix" : "contracts/sup-sup-negoscope"
}