{
  "activeViewId" : "a544a2ea-8ec0-4ebd-9368-b692de916e90",
  "appPageId" : "63d16848-c106-4c0c-8e45-da8e705cdeb9",
  "configurationTags" : [ ],
  "id" : "99b0a4eb-7392-432f-8926-84d9eaec0a89",
  "label" : "Nego Scope (Périmètre accord) Liste associée",
  "objectApiName" : "ULiT_Negoptim__Sup_sup_NegoScope__c",
  "routeType" : "relatedlist-a1i",
  "type" : "route",
  "urlPrefix" : "contracts/sup-sup-negoscope"
}