{
  "activeViewId" : "76d5b994-4abf-41d3-b85b-5393c364215b",
  "appPageId" : "63d16848-c106-4c0c-8e45-da8e705cdeb9",
  "configurationTags" : [ ],
  "id" : "87b59a9a-bf68-4356-998d-29ca957c7ed2",
  "label" : "Price List Statement Liste",
  "objectApiName" : "ULiT_Negoptim__Price_List_Statement__c",
  "routeType" : "list-a1O",
  "type" : "route",
  "urlPrefix" : "price-list-statements/price-list-statement"
}