{
  "activeViewId" : "2956d4aa-8d52-405c-a734-36b10c557911",
  "appPageId" : "63d16848-c106-4c0c-8e45-da8e705cdeb9",
  "configurationTags" : [ ],
  "id" : "d263c9d0-99f2-47e1-a9e8-8e53d92ced76",
  "label" : "Price List Statement Détails",
  "objectApiName" : "ULiT_Negoptim__Price_List_Statement__c",
  "routeType" : "detail-a1O",
  "type" : "route",
  "urlPrefix" : "price-list-statements/price-list-statement"
}