{
  "activeViewId" : "620631cf-623c-48ac-960c-950719f33295",
  "appPageId" : "63d16848-c106-4c0c-8e45-da8e705cdeb9",
  "configurationTags" : [ ],
  "id" : "e3853674-764e-4240-aff7-28f356b32491",
  "label" : "Price List Statement Tutorial",
  "pageAccess" : "UseParent",
  "routeType" : "custom-price-list-statement-tutorial",
  "type" : "route",
  "urlPrefix" : "price-list-statement-tutorial"
}