{
  "activeViewId" : "dd61613a-2e1d-4439-b341-a9265fbda723",
  "appPageId" : "63d16848-c106-4c0c-8e45-da8e705cdeb9",
  "configurationTags" : [ ],
  "id" : "c183a1a0-3d25-4a1f-8490-89d26a8a2150",
  "label" : "Record List",
  "pageAccess" : "UseParent",
  "routeType" : "list",
  "type" : "route",
  "urlPrefix" : "page-gnrique-en-tte/recordlist"
}