{
  "activeViewId" : "2d4861a7-b754-4218-a7d8-8246f134bdb4",
  "appPageId" : "63d16848-c106-4c0c-8e45-da8e705cdeb9",
  "configurationTags" : [ ],
  "id" : "a3ea815c-b761-4c09-bb4d-210b5ba1bb96",
  "label" : "Requête Liste associée",
  "routeType" : "relatedlist-500",
  "type" : "route",
  "urlPrefix" : "case"
}