{
  "activeViewId" : "abda7028-126c-486c-a478-07b460e7614b",
  "appPageId" : "63d16848-c106-4c0c-8e45-da8e705cdeb9",
  "configurationTags" : [ "allow-in-static-site" ],
  "id" : "8c52d73c-81be-4276-8e4e-f4d8706aa48b",
  "label" : "Service Not Available",
  "routeType" : "service-not-available",
  "type" : "route",
  "urlPrefix" : "service-not-available"
}