{
  "forgotPasswordRouteId" : "4259977a-2d27-441a-85ac-35eba946c0fb",
  "isAvailableToGuests" : false,
  "isFilteredComponentsView" : true,
  "isProgressiveRenderingEnabled" : false,
  "loginAppPageId" : "d96b0cdb-bb34-487c-bb89-d6987920114d",
  "mainAppPageId" : "63d16848-c106-4c0c-8e45-da8e705cdeb9",
  "preferredDomain" : "none",
  "selfRegistrationRouteId" : "51de2686-eb34-4f3d-97b2-c6c0fddcf713",
  "trustedSitesForScript" : [ {
    "id" : "2ec3c68a-3830-436f-ab60-bc6c04e681df",
    "isActive" : true,
    "trustedSiteName" : "imgur",
    "trustedSiteUrl" : "https://i.imgur.com",
    "type" : "trustedSitesForScripts"
  }, {
    "id" : "d4a195b4-542d-482f-80f3-d8e81b09b7f3",
    "isActive" : true,
    "trustedSiteName" : "mousquetaires",
    "trustedSiteUrl" : "https://negoptim-mousquetaires--sandbox1--c.documentforce.com",
    "type" : "trustedSitesForScripts"
  } ],
  "type" : "site"
}