{
  "appPageId" : "63d16848-c106-4c0c-8e45-da8e705cdeb9",
  "componentName" : "siteforce:dynamicLayout",
  "id" : "abd8a321-2833-4ce0-83ba-40a623c2641f",
  "label" : "Admin Data Modification",
  "regions" : [ {
    "components" : [ {
      "componentAttributes" : {
        "background" : "background: rgba(0,0,0,0)",
        "backgroundOverlay" : "rgba(0,0,0,0.5)",
        "contentAreaWidth" : 100,
        "sectionConfig" : {
          "UUID" : "b7ef1e13-fe03-4edb-a687-10f090dabe35",
          "columns" : [ {
            "UUID" : "c0e4c5bc-df6e-46e1-9bb7-f01a91f23ab8",
            "columnKey" : "1",
            "columnName" : "Column 1",
            "columnWidth" : "12",
            "seedComponents" : [ ]
          } ]
        },
        "sectionHeight" : 300
      },
      "componentName" : "forceCommunity:section",
      "id" : "b7ef1e13-fe03-4edb-a687-10f090dabe35",
      "regions" : [ {
        "components" : [ {
          "componentAttributes" : {
            "tabsetConfig" : {
              "UUID" : "a3c5cb6d-0f8e-441b-91a1-60b80c9b6389",
              "activeTab" : "",
              "tabs" : [ {
                "UUID" : "d4aa0cc2-a770-407d-b7ff-aab6b5273f2d",
                "allowGuestUser" : false,
                "locked" : false,
                "seedComponents" : [ ],
                "tabKey" : "1",
                "tabName" : "Nouvelle Demande"
              }, {
                "UUID" : "2e0d70aa-463b-4a76-bd31-1dc69b030e23",
                "allowGuestUser" : false,
                "locked" : false,
                "seedComponents" : [ ],
                "tabKey" : "2",
                "tabName" : "Historique"
              } ],
              "useOverflowMenu" : false
            }
          },
          "componentName" : "forceCommunity:tabset",
          "id" : "a3c5cb6d-0f8e-441b-91a1-60b80c9b6389",
          "regions" : [ {
            "components" : [ {
              "componentAttributes" : {
                "flowArguments" : "",
                "flowLayout" : "oneColumn",
                "flowName" : "SCREEN_Portal_Company_Administrative_Correction"
              },
              "componentName" : "forceCommunity:flowCommunity",
              "id" : "f4361af5-4246-4ba2-aff5-aa64f031be3f",
              "renditionMap" : { },
              "type" : "component"
            } ],
            "id" : "d4aa0cc2-a770-407d-b7ff-aab6b5273f2d",
            "regionLabel" : "Nouvelle Demande",
            "regionName" : "1",
            "renditionMap" : { },
            "type" : "region"
          }, {
            "components" : [ {
              "componentAttributes" : {
                "enableInlineEdit" : true,
                "filterName" : "Recent",
                "layout" : "STANDARD",
                "pageSize" : 25,
                "scope" : "Administrative_Data_Update__c",
                "showActionBar" : true,
                "showChartsPanel" : true,
                "showDisplay" : "showall",
                "showFilterPanel" : true,
                "showImageIcon" : true,
                "showManualRefreshButton" : true,
                "showObjectName" : true,
                "showPinnedList" : true,
                "showSearchBar" : true
              },
              "componentName" : "forceCommunity:objectHome",
              "id" : "bc4c5cc7-b5b7-46ea-b62e-221e6db3e2f8",
              "renditionMap" : { },
              "type" : "component"
            } ],
            "id" : "2e0d70aa-463b-4a76-bd31-1dc69b030e23",
            "regionLabel" : "Historique",
            "regionName" : "2",
            "renditionMap" : { },
            "type" : "region"
          } ],
          "renderPriority" : "NEUTRAL",
          "renditionMap" : { },
          "type" : "component"
        } ],
        "id" : "c0e4c5bc-df6e-46e1-9bb7-f01a91f23ab8",
        "regionLabel" : "Column 1",
        "regionName" : "1",
        "renditionMap" : { },
        "type" : "region"
      } ],
      "renderPriority" : "NEUTRAL",
      "renditionMap" : { },
      "type" : "component"
    } ],
    "id" : "5f4892d5-fdb0-49d0-aa6f-0dc4bf96780d",
    "regionName" : "content",
    "type" : "region"
  }, {
    "components" : [ {
      "componentAttributes" : {
        "customHeadTags" : "",
        "description" : "",
        "title" : "Admin Data Modification"
      },
      "componentName" : "forceCommunity:seoAssistant",
      "id" : "88ec6837-210a-4286-a5d6-92aa6f853e8e",
      "renditionMap" : { },
      "type" : "component"
    } ],
    "id" : "49910f65-fc6d-4f38-8565-246024162fc5",
    "regionName" : "sfdcHiddenRegion",
    "type" : "region"
  } ],
  "themeLayoutType" : "Inner",
  "type" : "view",
  "viewType" : "custom-admin-data-modification"
}