{
  "appPageId" : "63d16848-c106-4c0c-8e45-da8e705cdeb9",
  "componentName" : "siteforce:sldsOneColLayout",
  "id" : "cf97de24-1ebb-4dd6-93aa-58064221ccf1",
  "label" : "Alerte Métier Liste",
  "regions" : [ {
    "id" : "d8e6162a-b314-4224-9f3e-b63885704e1c",
    "regionName" : "header",
    "type" : "region"
  }, {
    "components" : [ {
      "componentAttributes" : {
        "enableInlineEdit" : true,
        "filterName" : "{!filterId}",
        "layout" : "FULL",
        "pageSize" : 25,
        "scope" : "{!objectName}",
        "showActionBar" : true,
        "showChartsPanel" : true,
        "showDisplay" : "showall",
        "showFilterPanel" : true,
        "showImageIcon" : true,
        "showManualRefreshButton" : true,
        "showObjectName" : true,
        "showPinnedList" : true,
        "showSearchBar" : true
      },
      "componentName" : "forceCommunity:objectHome",
      "id" : "11e3822f-deb5-4f5e-b1d1-25fac28185f6",
      "renderPriority" : "NEUTRAL",
      "renditionMap" : { },
      "type" : "component"
    } ],
    "id" : "f77551fb-7fea-47f2-9c31-d338958bbcf1",
    "regionName" : "content",
    "type" : "region"
  }, {
    "id" : "9b69f2a3-b02e-4e94-8218-7e34ff122646",
    "regionName" : "footer",
    "type" : "region"
  } ],
  "themeLayoutType" : "Inner",
  "type" : "view",
  "viewType" : "list-a1a"
}