{
  "appPageId" : "63d16848-c106-4c0c-8e45-da8e705cdeb9",
  "componentName" : "siteforce:dynamicLayout",
  "id" : "1bcc5e10-f201-43e8-ba01-8afe1bd7f206",
  "label" : "CDR Menu (1)",
  "regions" : [ {
    "components" : [ {
      "componentAttributes" : {
        "background" : "background: rgba(0,0,0,0)",
        "backgroundOverlay" : "rgba(0,0,0,0.5)",
        "contentAreaWidth" : 100,
        "sectionConfig" : {
          "UUID" : "4defbc3b-485f-4de1-88a0-3db78451a481",
          "columns" : [ {
            "UUID" : "ae3d3bd4-8848-4baf-b0b4-bbefa95481f1",
            "columnKey" : "1",
            "columnName" : "Column 1",
            "columnWidth" : "12",
            "seedComponents" : [ ]
          } ]
        },
        "sectionHeight" : 300
      },
      "componentName" : "forceCommunity:section",
      "id" : "4defbc3b-485f-4de1-88a0-3db78451a481",
      "regions" : [ {
        "components" : [ {
          "componentAttributes" : {
            "tabsetConfig" : {
              "UUID" : "0c50eac0-d75d-4e33-8e92-e4f0469426c0",
              "activeTab" : "",
              "tabs" : [ {
                "UUID" : "cb623917-0ddb-4f7a-917e-1b94a38814b4",
                "allowGuestUser" : false,
                "locked" : false,
                "seedComponents" : [ ],
                "tabKey" : "1",
                "tabName" : "Demandes en cours"
              }, {
                "UUID" : "dcccfa73-7729-489e-812a-b18786c5e590",
                "allowGuestUser" : false,
                "locked" : false,
                "seedComponents" : [ ],
                "tabKey" : "2",
                "tabName" : "Modèles"
              }, {
                "UUID" : "5b334b72-12a7-4881-84b7-c4d430e40e4f",
                "allowGuestUser" : false,
                "locked" : false,
                "seedComponents" : [ ],
                "tabKey" : "3",
                "tabName" : "Historique"
              } ],
              "useOverflowMenu" : false
            }
          },
          "componentName" : "forceCommunity:tabset",
          "id" : "0c50eac0-d75d-4e33-8e92-e4f0469426c0",
          "regions" : [ {
            "components" : [ {
              "componentAttributes" : {
                "enableInlineEdit" : false,
                "filterName" : "00B9E000003fLWrUAM",
                "layout" : "STANDARD",
                "pageSize" : 25,
                "scope" : "ULiT_Negoptim__Contract_Document__c",
                "showActionBar" : false,
                "showChartsPanel" : false,
                "showDisplay" : "grid",
                "showFilterPanel" : false,
                "showImageIcon" : false,
                "showManualRefreshButton" : false,
                "showObjectName" : false,
                "showPinnedList" : false,
                "showSearchBar" : false
              },
              "componentName" : "forceCommunity:objectHome",
              "id" : "bf708164-fb34-49fc-8b32-15f5da26a434",
              "renditionMap" : { },
              "type" : "component"
            } ],
            "id" : "cb623917-0ddb-4f7a-917e-1b94a38814b4",
            "regionLabel" : "Demandes en cours",
            "regionName" : "1",
            "renditionMap" : { },
            "type" : "region"
          }, {
            "components" : [ {
              "componentAttributes" : {
                "tabsetConfig" : {
                  "UUID" : "ca691447-816a-4c71-8a33-8ca86bf83b4b",
                  "activeTab" : "",
                  "tabs" : [ {
                    "UUID" : "470e7f0e-f448-4d10-a544-09df6deef32c",
                    "allowGuestUser" : false,
                    "locked" : false,
                    "seedComponents" : [ ],
                    "tabKey" : "2",
                    "tabName" : "Pré-rempli"
                  }, {
                    "UUID" : "1ca44cc3-3916-45f8-8180-940913aece5c",
                    "allowGuestUser" : false,
                    "locked" : false,
                    "seedComponents" : [ ],
                    "tabKey" : "1",
                    "tabName" : "Fichier Vierge"
                  } ],
                  "useOverflowMenu" : false
                }
              },
              "componentName" : "forceCommunity:tabset",
              "id" : "ca691447-816a-4c71-8a33-8ca86bf83b4b",
              "regions" : [ {
                "components" : [ {
                  "componentAttributes" : {
                    "enableInlineEdit" : false,
                    "filterName" : "00B9E000003BmrCUAS",
                    "layout" : "STANDARD",
                    "pageSize" : 25,
                    "scope" : "ULiT_Negoptim__Contract_Document__c",
                    "showActionBar" : false,
                    "showChartsPanel" : false,
                    "showDisplay" : "grid",
                    "showFilterPanel" : false,
                    "showImageIcon" : false,
                    "showManualRefreshButton" : false,
                    "showObjectName" : false,
                    "showPinnedList" : false,
                    "showSearchBar" : false
                  },
                  "componentName" : "forceCommunity:objectHome",
                  "id" : "9ae71025-f136-45d9-887e-d96de3ca9880",
                  "renditionMap" : { },
                  "type" : "component"
                } ],
                "id" : "470e7f0e-f448-4d10-a544-09df6deef32c",
                "regionLabel" : "Pré-rempli",
                "regionName" : "2",
                "renditionMap" : { },
                "type" : "region"
              }, {
                "components" : [ {
                  "componentAttributes" : {
                    "enableInlineEdit" : false,
                    "filterName" : "00B9E000003BjxnUAC",
                    "layout" : "STANDARD",
                    "pageSize" : 25,
                    "scope" : "SPITM_Blank_templates_to_complete__c",
                    "showActionBar" : false,
                    "showChartsPanel" : false,
                    "showDisplay" : "grid",
                    "showFilterPanel" : false,
                    "showImageIcon" : false,
                    "showManualRefreshButton" : false,
                    "showObjectName" : false,
                    "showPinnedList" : false,
                    "showSearchBar" : false
                  },
                  "componentName" : "forceCommunity:objectHome",
                  "id" : "0222d724-1247-4b88-8c12-cd9a46ad35f3",
                  "renditionMap" : { },
                  "type" : "component"
                } ],
                "id" : "1ca44cc3-3916-45f8-8180-940913aece5c",
                "regionLabel" : "Fichier Vierge",
                "regionName" : "1",
                "renditionMap" : { },
                "type" : "region"
              } ],
              "renditionMap" : { },
              "type" : "component"
            } ],
            "id" : "dcccfa73-7729-489e-812a-b18786c5e590",
            "regionLabel" : "Modèles",
            "regionName" : "2",
            "renditionMap" : { },
            "type" : "region"
          }, {
            "components" : [ {
              "componentAttributes" : {
                "enableInlineEdit" : false,
                "filterName" : "00B9E000003BmrBUAS",
                "layout" : "STANDARD",
                "pageSize" : 25,
                "scope" : "ULiT_Negoptim__Contract_Document__c",
                "showActionBar" : false,
                "showChartsPanel" : false,
                "showDisplay" : "grid",
                "showFilterPanel" : false,
                "showImageIcon" : false,
                "showManualRefreshButton" : false,
                "showObjectName" : false,
                "showPinnedList" : false,
                "showSearchBar" : false
              },
              "componentName" : "forceCommunity:objectHome",
              "id" : "0e918bc6-068a-4c09-a3d6-9874ae9554e2",
              "renditionMap" : { },
              "type" : "component"
            } ],
            "id" : "5b334b72-12a7-4881-84b7-c4d430e40e4f",
            "regionLabel" : "Historique",
            "regionName" : "3",
            "renditionMap" : { },
            "type" : "region"
          } ],
          "renderPriority" : "NEUTRAL",
          "renditionMap" : { },
          "type" : "component"
        } ],
        "id" : "ae3d3bd4-8848-4baf-b0b4-bbefa95481f1",
        "regionLabel" : "Column 1",
        "regionName" : "1",
        "renditionMap" : { },
        "type" : "region"
      } ],
      "renderPriority" : "NEUTRAL",
      "renditionMap" : { },
      "type" : "component"
    } ],
    "id" : "22fa6653-7618-442b-9540-0a08b533e192",
    "regionName" : "content",
    "type" : "region"
  }, {
    "components" : [ {
      "componentAttributes" : {
        "title" : "Fichier CDR"
      },
      "componentName" : "forceCommunity:seoAssistant",
      "id" : "3bf4577d-2a24-4677-b730-e3314c44a4dd",
      "renditionMap" : { },
      "type" : "component"
    } ],
    "id" : "107613a8-8036-4f5f-aebc-c1a975187f54",
    "regionName" : "sfdcHiddenRegion",
    "type" : "region"
  } ],
  "themeLayoutType" : "Inner",
  "type" : "view",
  "viewType" : "custom-cdr-menu-1"
}