{
  "appPageId" : "63d16848-c106-4c0c-8e45-da8e705cdeb9",
  "componentName" : "siteforce:dynamicLayout",
  "id" : "22cfce0e-4606-4925-8bf1-474a757824f1",
  "label" : "Contract After Sales Service",
  "regions" : [ {
    "components" : [ {
      "componentAttributes" : {
        "background" : "background: rgba(0,0,0,0)",
        "backgroundOverlay" : "rgba(0,0,0,0.5)",
        "contentAreaWidth" : 100,
        "sectionConfig" : {
          "UUID" : "75a1852b-0e38-4a0b-a6cb-68463ec98613",
          "columns" : [ {
            "UUID" : "cd54331b-abb7-42e5-9876-cf8cacd2067d",
            "columnKey" : "1",
            "columnName" : "Column 1",
            "columnWidth" : "12",
            "seedComponents" : [ ]
          } ]
        },
        "sectionHeight" : 300
      },
      "componentName" : "forceCommunity:section",
      "id" : "75a1852b-0e38-4a0b-a6cb-68463ec98613",
      "regions" : [ {
        "components" : [ {
          "componentAttributes" : {
            "enableInlineEdit" : true,
            "filterName" : "Recent",
            "layout" : "FULL",
            "pageSize" : 25,
            "scope" : "ULiT_Negoptim__Contract__c",
            "showActionBar" : true,
            "showChartsPanel" : true,
            "showDisplay" : "showall",
            "showFilterPanel" : true,
            "showImageIcon" : true,
            "showManualRefreshButton" : true,
            "showObjectName" : true,
            "showPinnedList" : true,
            "showSearchBar" : true
          },
          "componentName" : "forceCommunity:objectHome",
          "id" : "26a1d754-9d22-41c0-be4d-ffa7cd26ec69",
          "renderPriority" : "NEUTRAL",
          "renditionMap" : { },
          "type" : "component"
        } ],
        "id" : "cd54331b-abb7-42e5-9876-cf8cacd2067d",
        "regionLabel" : "Column 1",
        "regionName" : "1",
        "renditionMap" : { },
        "type" : "region"
      } ],
      "renderPriority" : "NEUTRAL",
      "renditionMap" : { },
      "type" : "component"
    } ],
    "id" : "73d96840-09e1-4013-8d84-c9508638af47",
    "regionName" : "content",
    "type" : "region"
  }, {
    "components" : [ {
      "componentAttributes" : {
        "customHeadTags" : "",
        "description" : "",
        "title" : "Contract After Sales Service"
      },
      "componentName" : "forceCommunity:seoAssistant",
      "id" : "3622cc8e-0f58-44b1-b2bc-e756306e70b1",
      "renditionMap" : { },
      "type" : "component"
    } ],
    "id" : "ad6d6466-3532-4d54-a577-15c61fc28648",
    "regionName" : "sfdcHiddenRegion",
    "type" : "region"
  } ],
  "themeLayoutType" : "Inner",
  "type" : "view",
  "viewType" : "custom-contract-after-sales-service"
}