{
  "appPageId" : "63d16848-c106-4c0c-8e45-da8e705cdeb9",
  "componentName" : "siteforce:dynamicLayout",
  "id" : "c85bd86b-b2ac-4a23-b0fe-5b634dc92c4d",
  "label" : "Contract Documents",
  "regions" : [ {
    "components" : [ {
      "componentAttributes" : {
        "background" : "background: rgba(0,0,0,0)",
        "backgroundOverlay" : "rgba(0,0,0,0.5)",
        "contentAreaWidth" : 100,
        "sectionConfig" : {
          "UUID" : "b795b858-9607-46d2-89d6-b5458bd7964f",
          "columns" : [ {
            "UUID" : "ee4600fd-188a-4a97-b8a9-256f70abb1a6",
            "columnKey" : "1",
            "columnName" : "Column 1",
            "columnWidth" : "12",
            "seedComponents" : [ ]
          } ]
        },
        "sectionHeight" : 300
      },
      "componentName" : "forceCommunity:section",
      "id" : "b795b858-9607-46d2-89d6-b5458bd7964f",
      "regions" : [ {
        "components" : [ {
          "componentAttributes" : {
            "bannerBackgroundColor" : "",
            "bannerPosition" : "top",
            "bannerSizePercent" : 35,
            "borderRadius" : 20,
            "boxShadow" : true,
            "haveBanner" : false,
            "iconBackgroundColor" : "rgb(255,255,255)",
            "iconSize" : "medium",
            "noImageColor" : "rgb(212, 212, 212)",
            "overlay" : "rgba(0,0,0,0.01)",
            "templateType" : "full",
            "tileMenuEditor" : "Contract_Document_Sub_Menu",
            "titleColor" : "",
            "titleFontSize" : "large",
            "titleHorizontalAlign" : "center"
          },
          "componentName" : "community_navigation:tileMenu",
          "id" : "e25b4a14-627c-4bb2-9f44-c9f1054c56b2",
          "renderPriority" : "NEUTRAL",
          "renditionMap" : { },
          "type" : "component"
        } ],
        "id" : "ee4600fd-188a-4a97-b8a9-256f70abb1a6",
        "regionLabel" : "Column 1",
        "regionName" : "1",
        "renditionMap" : { },
        "type" : "region"
      } ],
      "renderPriority" : "NEUTRAL",
      "renditionMap" : { },
      "type" : "component"
    } ],
    "id" : "4aee16d2-4de3-43d5-85b8-f92b8b93979e",
    "regionName" : "content",
    "type" : "region"
  }, {
    "components" : [ {
      "componentAttributes" : {
        "customHeadTags" : "",
        "description" : "",
        "title" : "Contract Documents"
      },
      "componentName" : "forceCommunity:seoAssistant",
      "id" : "7751d511-58f5-4781-8444-61584bc05671",
      "renditionMap" : { },
      "type" : "component"
    } ],
    "id" : "f2ff6f87-8bdf-44b3-8657-966b3257f9d6",
    "regionName" : "sfdcHiddenRegion",
    "type" : "region"
  } ],
  "themeLayoutType" : "Inner",
  "type" : "view",
  "viewType" : "custom-contract-documents"
}