{
  "appPageId" : "63d16848-c106-4c0c-8e45-da8e705cdeb9",
  "componentName" : "siteforce:sldsOneColLayout",
  "id" : "9c09ac41-4845-4d71-a3e8-93b20dff438b",
  "label" : "Contract - Sales Conditions Exception Liste associée",
  "regions" : [ {
    "id" : "76dda835-b7b7-43d2-82ae-4190fb790116",
    "regionName" : "header",
    "type" : "region"
  }, {
    "components" : [ {
      "componentAttributes" : {
        "customTitle" : "",
        "parentRecordId" : "{!recordId}",
        "relatedListName" : "{!relationshipApiName}",
        "showBreadCrumbs" : true,
        "showCustomTitle" : false,
        "showManualRefreshButton" : true,
        "showRowNumbers" : true
      },
      "componentName" : "forceCommunity:relatedList",
      "id" : "ed37f49d-9c86-4319-8097-737fc3037ffb",
      "renderPriority" : "NEUTRAL",
      "renditionMap" : { },
      "type" : "component"
    } ],
    "id" : "981f43fc-14a3-4a76-85e8-38b5c62214fa",
    "regionName" : "content",
    "type" : "region"
  }, {
    "id" : "db855402-3cfa-4421-a319-a6c3662cad37",
    "regionName" : "footer",
    "type" : "region"
  } ],
  "themeLayoutType" : "Inner",
  "type" : "view",
  "viewType" : "relatedlist-a1L"
}