{
  "appPageId" : "63d16848-c106-4c0c-8e45-da8e705cdeb9",
  "componentName" : "siteforce:dynamicLayout",
  "id" : "498cca3e-6434-4dd4-9eb7-59f2072457a7",
  "label" : "Direct To Store Apendix",
  "regions" : [ {
    "components" : [ {
      "componentAttributes" : {
        "background" : "background: rgba(0,0,0,0)",
        "backgroundOverlay" : "rgba(0,0,0,0.5)",
        "contentAreaWidth" : 100,
        "sectionConfig" : {
          "UUID" : "5d473fca-cff7-4c7a-9eb7-f9e3139b815b",
          "columns" : [ {
            "UUID" : "daa62171-143e-49b3-83b5-5a4b26bed192",
            "columnKey" : "1",
            "columnName" : "Column 1",
            "columnWidth" : "12",
            "seedComponents" : [ ]
          } ]
        },
        "sectionHeight" : 300
      },
      "componentName" : "forceCommunity:section",
      "id" : "5d473fca-cff7-4c7a-9eb7-f9e3139b815b",
      "regions" : [ {
        "components" : [ {
          "componentAttributes" : {
            "flowArguments" : "",
            "flowLayout" : "oneColumn",
            "flowName" : "SCREEN_Portal_Mandatory_Contract_Info_Completion"
          },
          "componentName" : "forceCommunity:flowCommunity",
          "id" : "9d6b0418-eb3b-4e3c-908c-6a682245a469",
          "renderPriority" : "NEUTRAL",
          "renditionMap" : { },
          "type" : "component"
        }, {
          "componentAttributes" : {
            "enableInlineEdit" : true,
            "filterName" : "Recent",
            "layout" : "FULL",
            "pageSize" : 25,
            "scope" : "ULiT_Negoptim__Pol_Sale_Condition_Exception__c",
            "showActionBar" : true,
            "showChartsPanel" : true,
            "showDisplay" : "showall",
            "showFilterPanel" : true,
            "showImageIcon" : true,
            "showManualRefreshButton" : true,
            "showObjectName" : true,
            "showPinnedList" : true,
            "showSearchBar" : true
          },
          "componentName" : "forceCommunity:objectHome",
          "id" : "9c7a90bc-e2e2-4681-8eb7-406e1dfbdf69",
          "renderPriority" : "NEUTRAL",
          "renditionMap" : { },
          "type" : "component"
        } ],
        "id" : "daa62171-143e-49b3-83b5-5a4b26bed192",
        "regionLabel" : "Column 1",
        "regionName" : "1",
        "renditionMap" : { },
        "type" : "region"
      } ],
      "renderPriority" : "NEUTRAL",
      "renditionMap" : { },
      "type" : "component"
    } ],
    "id" : "22e2f20f-5127-4be3-a2aa-3e42db60e322",
    "regionName" : "content",
    "type" : "region"
  }, {
    "components" : [ {
      "componentAttributes" : {
        "customHeadTags" : "",
        "description" : "",
        "title" : "Direct To Store Apendix"
      },
      "componentName" : "forceCommunity:seoAssistant",
      "id" : "756d56b7-915f-4261-b517-090b2478c62f",
      "renditionMap" : { },
      "type" : "component"
    } ],
    "id" : "823081bf-b80b-4845-a67e-b74409edfdfc",
    "regionName" : "sfdcHiddenRegion",
    "type" : "region"
  } ],
  "themeLayoutType" : "Inner",
  "type" : "view",
  "viewType" : "custom-direct-to-store-apendix"
}