{
  "appPageId" : "63d16848-c106-4c0c-8e45-da8e705cdeb9",
  "componentName" : "siteforce:dynamicLayout",
  "id" : "2a0fa40f-f61b-4712-b454-bdb16311624d",
  "label" : "Documents Center",
  "regions" : [ {
    "components" : [ {
      "componentAttributes" : {
        "background" : "background: rgba(0,0,0,0.08) url(/sfsites/c/file-asset/jankoferlicsfL_QOnmy00unsplash?v=1) center center /cover",
        "backgroundOverlay" : "rgba(15, 14, 14, 0.5)",
        "contentAreaWidth" : 100,
        "sectionConfig" : {
          "UUID" : "08a83226-2438-4b41-939c-81757c261476",
          "columns" : [ {
            "UUID" : "c2f51610-f1fd-4011-8a06-a3538c885734",
            "columnKey" : "1",
            "columnName" : "Column 1",
            "columnWidth" : "12",
            "seedComponents" : [ ]
          } ]
        },
        "sectionHeight" : 235
      },
      "componentName" : "forceCommunity:section",
      "id" : "08a83226-2438-4b41-939c-81757c261476",
      "regions" : [ {
        "components" : [ {
          "componentAttributes" : {
            "richTextValue" : "<p style=\"text-align: center;\"><br></p><p style=\"text-align: center;\"><br></p><p style=\"text-align: center;\"><b style=\"color: rgb(255, 255, 255); font-size: 72px;\"><span class=\"ql-cursor\">﻿</span>﻿Bibliothèque</b></p><p style=\"text-align: center;\"><i style=\"color: rgb(255, 255, 255);\">Consultez et déposer votre documentation en toute sécurité </i></p><p style=\"text-align: center;\"><i style=\"color: rgb(255, 255, 255);\">depuis votre bibliothèque.</i></p>"
          },
          "componentName" : "forceCommunity:richTextInline",
          "id" : "d32c604a-c6b9-4d5d-b52a-8b83f047625a",
          "renderPriority" : "NEUTRAL",
          "renditionMap" : { },
          "type" : "component"
        } ],
        "id" : "c2f51610-f1fd-4011-8a06-a3538c885734",
        "regionLabel" : "Column 1",
        "regionName" : "1",
        "renditionMap" : { },
        "type" : "region"
      } ],
      "renderPriority" : "NEUTRAL",
      "renditionMap" : { },
      "type" : "component"
    }, {
      "componentAttributes" : {
        "background" : "background: rgba(0,0,0,0)",
        "backgroundOverlay" : "rgba(0,0,0,0.5)",
        "contentAreaWidth" : 100,
        "sectionConfig" : {
          "UUID" : "cd70d876-a4fe-4274-b5c4-eab9233cdc6e",
          "columns" : [ {
            "UUID" : "45d6a608-5bb3-4d0e-a025-f65bbb5fcb93",
            "columnKey" : "1",
            "columnName" : "Column 1",
            "columnWidth" : "4",
            "seedComponents" : [ ]
          }, {
            "UUID" : "586d9094-70c3-47da-9392-aa2e2933545c",
            "columnKey" : "b5f36",
            "columnName" : "Column 2",
            "columnWidth" : "4",
            "seedComponents" : [ ]
          }, {
            "UUID" : "28c1c18f-c978-4a99-89c4-d9813827618d",
            "columnKey" : "7e918",
            "columnName" : "Column 3",
            "columnWidth" : "4",
            "seedComponents" : [ ]
          } ]
        },
        "sectionHeight" : 300
      },
      "componentName" : "forceCommunity:section",
      "id" : "cd70d876-a4fe-4274-b5c4-eab9233cdc6e",
      "regions" : [ {
        "components" : [ {
          "componentAttributes" : {
            "bannerBackgroundColor" : "rgb(78, 49, 41)",
            "bannerPosition" : "top",
            "bannerSizePercent" : 35,
            "borderRadius" : 20,
            "boxShadow" : true,
            "haveBanner" : false,
            "iconBackgroundColor" : "rgb(255,255,255)",
            "iconSize" : "medium",
            "noImageColor" : "rgb(212, 212, 212)",
            "overlay" : "rgba(0,0,0,0.01)",
            "templateType" : "full",
            "tileMenuEditor" : "Documents_Center_Sub_Menu_1",
            "titleColor" : "",
            "titleFontSize" : "medium",
            "titleHorizontalAlign" : "center"
          },
          "componentName" : "community_navigation:tileMenu",
          "id" : "dea918e9-1ced-4a36-aad3-4dd1bbc5d405",
          "renderPriority" : "NEUTRAL",
          "renditionMap" : { },
          "type" : "component"
        } ],
        "id" : "45d6a608-5bb3-4d0e-a025-f65bbb5fcb93",
        "regionLabel" : "Column 1",
        "regionName" : "1",
        "renditionMap" : { },
        "type" : "region"
      }, {
        "components" : [ {
          "componentAttributes" : {
            "bannerBackgroundColor" : "",
            "bannerPosition" : "top",
            "bannerSizePercent" : 35,
            "borderRadius" : 20,
            "boxShadow" : true,
            "haveBanner" : false,
            "iconBackgroundColor" : "rgb(255,255,255)",
            "iconSize" : "medium",
            "noImageColor" : "rgb(212, 212, 212)",
            "overlay" : "rgba(0,0,0,0.01)",
            "templateType" : "full",
            "tileMenuEditor" : "Documents_Center_Sub_Menu_2",
            "titleColor" : "",
            "titleFontSize" : "medium",
            "titleHorizontalAlign" : "center"
          },
          "componentName" : "community_navigation:tileMenu",
          "id" : "16164608-a438-47ae-9f9c-926cd6e758b8",
          "renderPriority" : "NEUTRAL",
          "renditionMap" : { },
          "type" : "component"
        } ],
        "id" : "586d9094-70c3-47da-9392-aa2e2933545c",
        "regionLabel" : "Column 2",
        "regionName" : "b5f36",
        "renditionMap" : { },
        "type" : "region"
      }, {
        "components" : [ {
          "componentAttributes" : {
            "bannerBackgroundColor" : "",
            "bannerPosition" : "top",
            "bannerSizePercent" : 35,
            "borderRadius" : 20,
            "boxShadow" : true,
            "haveBanner" : false,
            "iconBackgroundColor" : "rgb(255,255,255)",
            "iconSize" : "medium",
            "noImageColor" : "rgb(212, 212, 212)",
            "overlay" : "rgba(0,0,0,0.01)",
            "templateType" : "full",
            "tileMenuEditor" : "Documents_Center_Sub_Menu_3",
            "titleColor" : "",
            "titleFontSize" : "medium",
            "titleHorizontalAlign" : "center"
          },
          "componentName" : "community_navigation:tileMenu",
          "id" : "b4a17444-ead8-4a58-9a85-d05d6515d5bc",
          "renderPriority" : "NEUTRAL",
          "renditionMap" : { },
          "type" : "component"
        } ],
        "id" : "28c1c18f-c978-4a99-89c4-d9813827618d",
        "regionLabel" : "Column 3",
        "regionName" : "7e918",
        "renditionMap" : { },
        "type" : "region"
      } ],
      "renderPriority" : "NEUTRAL",
      "renditionMap" : { },
      "type" : "component"
    } ],
    "id" : "ec85a009-d228-49c0-86dc-2be0ea04408a",
    "regionName" : "content",
    "type" : "region"
  }, {
    "components" : [ {
      "componentAttributes" : {
        "customHeadTags" : "",
        "description" : "",
        "title" : "Documents Center"
      },
      "componentName" : "forceCommunity:seoAssistant",
      "id" : "ce837ce0-2294-4849-846b-dce02bdea933",
      "renditionMap" : { },
      "type" : "component"
    } ],
    "id" : "34842589-aff1-45d5-8c26-071616102abf",
    "regionName" : "sfdcHiddenRegion",
    "type" : "region"
  } ],
  "themeLayoutType" : "Inner",
  "type" : "view",
  "viewType" : "custom-documents-center"
}