{
  "appPageId" : "63d16848-c106-4c0c-8e45-da8e705cdeb9",
  "componentName" : "siteforce:sldsOneColLayout",
  "id" : "d944dbda-b4b1-4b3a-bc84-f00d73a8ddee",
  "label" : "Déclaration des PAN Détails",
  "regions" : [ {
    "components" : [ {
      "componentAttributes" : {
        "recordId" : "{!recordId}"
      },
      "componentName" : "forceCommunity:recordHeadline",
      "id" : "04e6e111-27b3-4478-be41-f81da9e514bc",
      "renderPriority" : "NEUTRAL",
      "renditionMap" : { },
      "type" : "component"
    } ],
    "id" : "556675d7-f079-4cb2-af98-480c244067f3",
    "regionName" : "header",
    "type" : "region"
  }, {
    "components" : [ {
      "componentAttributes" : {
        "tabsetConfig" : {
          "UUID" : "7bda6573-ded7-4528-b996-dd54912e9c88",
          "activeTab" : "",
          "tabs" : [ {
            "UUID" : "0ff37816-1fdf-4211-b4a5-3fc4c67ea907",
            "allowGuestUser" : false,
            "locked" : false,
            "seedComponents" : [ ],
            "tabKey" : "1",
            "tabName" : "Ma To-Do List"
          }, {
            "UUID" : "aabf2210-096a-453f-8f03-70a6bbf87726",
            "allowGuestUser" : false,
            "locked" : false,
            "seedComponents" : [ ],
            "tabKey" : "9dbb4",
            "tabName" : "Proforma"
          }, {
            "UUID" : "a48d2915-50f6-4dab-8622-f8d641927148",
            "allowGuestUser" : false,
            "locked" : false,
            "seedComponents" : [ ],
            "tabKey" : "2",
            "tabName" : "Taxes"
          }, {
            "UUID" : "96fd6672-2cdf-4761-a95c-d8d7ff1d6623",
            "allowGuestUser" : false,
            "locked" : false,
            "seedComponents" : [ ],
            "tabKey" : "3",
            "tabName" : "Remises"
          }, {
            "UUID" : "22d6558d-438c-4b3a-971e-bf55d36d0f3f",
            "allowGuestUser" : false,
            "locked" : false,
            "seedComponents" : [ ],
            "tabKey" : "ddd1e",
            "tabName" : "Grille Tarifaire"
          }, {
            "UUID" : "6fb7fe71-68d6-4245-bc8a-d4b70d13ebb3",
            "allowGuestUser" : false,
            "locked" : false,
            "seedComponents" : [ ],
            "tabKey" : "d6c1e",
            "tabName" : "Approbation"
          }, {
            "UUID" : "cccbf640-9eeb-4ded-bfdc-6a962fa21b1e",
            "allowGuestUser" : false,
            "locked" : false,
            "seedComponents" : [ ],
            "tabKey" : "dbdc4",
            "tabName" : "Collaboration"
          } ],
          "useOverflowMenu" : false
        }
      },
      "componentName" : "forceCommunity:tabset",
      "id" : "7bda6573-ded7-4528-b996-dd54912e9c88",
      "regions" : [ {
        "components" : [ {
          "componentAttributes" : {
            "flowArguments" : "[{\"label\":\"recordId\",\"dataType\":\"String\",\"supportsRecordId\":true,\"value\":\"{!Record.Id}\"}]",
            "flowLayout" : "oneColumn",
            "flowName" : "SCREEN_Net_Price_Statement_Statement_Welcome_Screen_NEW"
          },
          "componentName" : "forceCommunity:flowCommunity",
          "id" : "868288cb-ac98-4bd5-8b97-8fc194dc12f6",
          "renditionMap" : { },
          "type" : "component"
        } ],
        "id" : "0ff37816-1fdf-4211-b4a5-3fc4c67ea907",
        "regionLabel" : "1. T's and C's",
        "regionName" : "1",
        "renditionMap" : {
          "fr" : "1b962f5b-77f7-4eab-bdc5-ad52d34afbed"
        },
        "renditions" : [ {
          "id" : "1b962f5b-77f7-4eab-bdc5-ad52d34afbed",
          "renditionValue" : {
            "regionLabel" : "Ma To-Do List"
          },
          "type" : "renditionComponent"
        } ],
        "type" : "region"
      }, {
        "components" : [ {
          "componentAttributes" : {
            "flowArguments" : "[{\"label\":\"recordId\",\"dataType\":\"String\",\"supportsRecordId\":true,\"value\":\"{!Record.Id}\"}]",
            "flowLayout" : "oneColumn",
            "flowName" : "SCREEN_Net_Price_Statement_Portal_Contract_Document_Loading"
          },
          "componentName" : "forceCommunity:flowCommunity",
          "id" : "f9a73d51-0868-44de-a3eb-4d306619d0b6",
          "renditionMap" : { },
          "type" : "component"
        }, {
          "componentAttributes" : {
            "relatedListApiName" : "Suivi_des_Docs_Contractuels__r",
            "relatedListComponentOverride" : "ADVGRID",
            "width" : "MEDIUM"
          },
          "componentName" : "forceCommunity:responsiveRelatedListSingle",
          "id" : "75e861b0-4940-4acc-8912-58047e5b09eb",
          "renditionMap" : { },
          "type" : "component"
        } ],
        "id" : "aabf2210-096a-453f-8f03-70a6bbf87726",
        "regionLabel" : "Nouvel onglet",
        "regionName" : "9dbb4",
        "renditionMap" : {
          "fr" : "58ecff59-3555-4fca-9a29-58b62024e201"
        },
        "renditions" : [ {
          "id" : "58ecff59-3555-4fca-9a29-58b62024e201",
          "renditionValue" : {
            "regionLabel" : "Proforma"
          },
          "type" : "renditionComponent"
        } ],
        "type" : "region"
      }, {
        "components" : [ {
          "componentAttributes" : {
            "flowArguments" : "[{\"label\":\"recordId\",\"dataType\":\"String\",\"supportsRecordId\":true,\"value\":\"{!Record.Id}\"}]",
            "flowLayout" : "oneColumn",
            "flowName" : "SCREEN_Net_Price_Statement_Tax_Confirmation"
          },
          "componentName" : "forceCommunity:flowCommunity",
          "id" : "4923e50b-c4b3-4282-b3d1-b374438b7801",
          "renditionMap" : { },
          "type" : "component"
        }, {
          "componentAttributes" : {
            "relatedListApiName" : "ULiT_Negoptim__Supplier_Taxes_Statements__r",
            "relatedListComponentOverride" : "ADVGRID",
            "width" : "MEDIUM"
          },
          "componentName" : "forceCommunity:relatedListSingle",
          "id" : "e13b4d13-11a9-4ad7-bd14-c31bcdc3dd18",
          "renditionMap" : { },
          "type" : "component"
        } ],
        "id" : "a48d2915-50f6-4dab-8622-f8d641927148",
        "regionLabel" : "2. Tax Selection",
        "regionName" : "2",
        "renditionMap" : {
          "fr" : "55254c25-6085-45d9-917f-16fd62646074"
        },
        "renditions" : [ {
          "id" : "55254c25-6085-45d9-917f-16fd62646074",
          "renditionValue" : {
            "regionLabel" : "Taxes"
          },
          "type" : "renditionComponent"
        } ],
        "type" : "region"
      }, {
        "components" : [ {
          "componentAttributes" : {
            "flowArguments" : "[{\"label\":\"recordId\",\"dataType\":\"String\",\"supportsRecordId\":true,\"value\":\"{!Record.Id}\"}]",
            "flowLayout" : "oneColumn",
            "flowName" : "SCREEN_Net_Price_Statement_Discount_Confirmation"
          },
          "componentName" : "forceCommunity:flowCommunity",
          "id" : "d88a410f-b01b-493e-9e3f-79340d0627ae",
          "renditionMap" : { },
          "type" : "component"
        }, {
          "componentAttributes" : {
            "relatedListApiName" : "ULiT_Negoptim__Supplier_Price_Discount_Statements__r",
            "relatedListComponentOverride" : "ADVGRID",
            "width" : "MEDIUM"
          },
          "componentName" : "forceCommunity:relatedListSingle",
          "id" : "82237200-8dcb-469f-abbe-2769c631f41e",
          "renditionMap" : { },
          "type" : "component"
        } ],
        "id" : "96fd6672-2cdf-4761-a95c-d8d7ff1d6623",
        "regionLabel" : "3. Discount Selection",
        "regionName" : "3",
        "renditionMap" : {
          "fr" : "937f6ca5-3c81-4624-9ad9-f266f93cacf1"
        },
        "renditions" : [ {
          "id" : "937f6ca5-3c81-4624-9ad9-f266f93cacf1",
          "renditionValue" : {
            "regionLabel" : "Remises"
          },
          "type" : "renditionComponent"
        } ],
        "type" : "region"
      }, {
        "components" : [ {
          "componentAttributes" : {
            "flowArguments" : "[{\"label\":\"recordId\",\"dataType\":\"String\",\"supportsRecordId\":true,\"value\":\"{!Record.Id}\"}]",
            "flowLayout" : "oneColumn",
            "flowName" : "SCREEN_Net_Price_Statement_Add_new_product_process"
          },
          "componentName" : "forceCommunity:flowCommunity",
          "id" : "a674beb3-5515-4bcc-8b9f-e67426d16688",
          "renditionMap" : { },
          "type" : "component"
        }, {
          "componentAttributes" : {
            "height" : "1000",
            "pageName" : "ULiT_Negoptim__NetPriceStatementMatrix",
            "recordId" : "{!recordId}"
          },
          "componentName" : "forceCommunity:visualforcePage",
          "id" : "8549aaed-8a1d-4467-b3c9-2484301309fc",
          "renditionMap" : { },
          "type" : "component"
        } ],
        "id" : "22d6558d-438c-4b3a-971e-bf55d36d0f3f",
        "regionLabel" : "4. Net Price Statement",
        "regionName" : "ddd1e",
        "renditionMap" : {
          "fr" : "c90161f1-a906-4def-81ce-47206011a7c0"
        },
        "renditions" : [ {
          "id" : "c90161f1-a906-4def-81ce-47206011a7c0",
          "renditionValue" : {
            "regionLabel" : "Grille Tarifaire"
          },
          "type" : "renditionComponent"
        } ],
        "type" : "region"
      }, {
        "components" : [ {
          "componentAttributes" : {
            "relatedListApiName" : "ProcessSteps",
            "relatedListComponentOverride" : "ADVGRID",
            "width" : "MEDIUM"
          },
          "componentName" : "forceCommunity:responsiveRelatedListSingle",
          "id" : "46a636c4-9ac7-4d96-b7be-65fe02efb626",
          "renditionMap" : { },
          "type" : "component"
        }, {
          "componentAttributes" : {
            "relatedListApiName" : "ULiT_Negoptim__Net_Price_Statement_Details__r",
            "relatedListComponentOverride" : "ADVGRID",
            "width" : "MEDIUM"
          },
          "componentName" : "forceCommunity:responsiveRelatedListSingle",
          "id" : "7a466d74-5065-4869-9dd4-728671778d3d",
          "renditionMap" : { },
          "type" : "component"
        } ],
        "id" : "6fb7fe71-68d6-4245-bc8a-d4b70d13ebb3",
        "regionLabel" : "Nouvel onglet",
        "regionName" : "d6c1e",
        "renditionMap" : {
          "fr" : "ae39ceab-c5c2-401b-b529-d0ffb2b4d5d3"
        },
        "renditions" : [ {
          "id" : "ae39ceab-c5c2-401b-b529-d0ffb2b4d5d3",
          "renditionValue" : {
            "regionLabel" : "Approbation"
          },
          "type" : "renditionComponent"
        } ],
        "type" : "region"
      }, {
        "components" : [ {
          "componentAttributes" : {
            "context" : "RECORD",
            "recordId" : "{!recordId}",
            "width" : "MEDIUM"
          },
          "componentName" : "forceCommunity:feedPublisher",
          "id" : "6149ec2f-24be-42cb-ba55-0a339b073855",
          "renditionMap" : { },
          "type" : "component"
        }, {
          "componentAttributes" : {
            "canChangeSorting" : true,
            "defaultFilter" : "",
            "defaultSortOrderHomeFeed" : "Relevance",
            "defaultSortOrderTopicsFeed" : "Relevance",
            "feedDesign" : "DEFAULT",
            "hasFeedSearch" : true,
            "subjectId" : "{!recordId}",
            "type" : "Record"
          },
          "componentName" : "forceCommunity:forceCommunityFeed",
          "id" : "6ab9a54e-06e3-41cd-a56f-dcd80c94c2b7",
          "renditionMap" : { },
          "type" : "component"
        } ],
        "id" : "cccbf640-9eeb-4ded-bfdc-6a962fa21b1e",
        "regionLabel" : "Nouvel onglet",
        "regionName" : "dbdc4",
        "renditionMap" : {
          "fr" : "0a784c1b-7080-4944-8608-945dcd72443f"
        },
        "renditions" : [ {
          "id" : "0a784c1b-7080-4944-8608-945dcd72443f",
          "renditionValue" : {
            "regionLabel" : "Collaboration"
          },
          "type" : "renditionComponent"
        } ],
        "type" : "region"
      } ],
      "renderPriority" : "NEUTRAL",
      "renditionMap" : { },
      "type" : "component"
    } ],
    "id" : "221a0346-b11e-4f63-b593-b97fc5a2b838",
    "regionName" : "content",
    "type" : "region"
  }, {
    "id" : "c7ccc2a6-d9a6-4d06-8443-77889d0134fb",
    "regionName" : "footer",
    "type" : "region"
  }, {
    "components" : [ {
      "componentAttributes" : {
        "customHeadTags" : "",
        "description" : "",
        "title" : "{!Record._Object}: {!Record._Title}"
      },
      "componentName" : "forceCommunity:seoAssistant",
      "id" : "3d6bf39a-787c-4d23-a09f-446afedc5cc6",
      "renditionMap" : { },
      "type" : "component"
    } ],
    "id" : "92cb3a25-cdea-48c0-ae63-7083053d0415",
    "regionName" : "sfdcHiddenRegion",
    "type" : "region"
  } ],
  "themeLayoutType" : "Inner",
  "type" : "view",
  "viewType" : "detail-a1E"
}