{
  "appPageId" : "63d16848-c106-4c0c-8e45-da8e705cdeb9",
  "componentName" : "siteforce:sldsOneColLayout",
  "id" : "65573465-49d6-4d28-a02b-d3b6c32b383a",
  "label" : "Déclaration des PAN Liste associée",
  "regions" : [ {
    "id" : "17bcfc1b-fd9f-4ca3-ab78-b37d2ab2570a",
    "regionName" : "header",
    "type" : "region"
  }, {
    "components" : [ {
      "componentAttributes" : {
        "customTitle" : "",
        "parentRecordId" : "{!recordId}",
        "relatedListName" : "{!relationshipApiName}",
        "showBreadCrumbs" : true,
        "showCustomTitle" : false,
        "showManualRefreshButton" : true,
        "showRowNumbers" : true
      },
      "componentName" : "forceCommunity:relatedList",
      "id" : "395327e4-f698-4156-87dd-4c4780294b34",
      "renderPriority" : "NEUTRAL",
      "renditionMap" : { },
      "type" : "component"
    } ],
    "id" : "be2792d4-f441-47bb-9b8f-1f83d707db46",
    "regionName" : "content",
    "type" : "region"
  }, {
    "id" : "4e11e692-c137-4bc7-982d-65edce39a734",
    "regionName" : "footer",
    "type" : "region"
  } ],
  "themeLayoutType" : "Inner",
  "type" : "view",
  "viewType" : "relatedlist-a1E"
}