{
  "appPageId" : "63d16848-c106-4c0c-8e45-da8e705cdeb9",
  "componentName" : "siteforce:sldsTwoCol84Layout",
  "id" : "fad26fdf-dc40-42a5-b405-ae01dc46edae",
  "label" : "Home",
  "regions" : [ {
    "components" : [ {
      "componentAttributes" : {
        "autoPlay" : true,
        "autoPlayInterval" : 9000,
        "controlsAlignment" : "center",
        "controlsPosition" : "overlay",
        "datasource" : "carousel-object",
        "datasourceInput" : "CRSL - 00000",
        "showControls" : true,
        "slidesPerPage" : 1,
        "title" : "",
        "titleAlign" : "left",
        "titleSize" : "large"
      },
      "componentName" : "cloudx_cms:SS_cmsCarousel",
      "id" : "dda01598-5fe1-499a-8c11-69f015b65d5c",
      "renderPriority" : "NEUTRAL",
      "renditionMap" : { },
      "type" : "component"
    } ],
    "id" : "f632935f-661a-46d1-969a-36eba4d1949a",
    "regionName" : "header",
    "type" : "region"
  }, {
    "components" : [ {
      "componentAttributes" : {
        "bannerBackgroundColor" : "",
        "bannerPosition" : "top",
        "bannerSizePercent" : 35,
        "borderRadius" : 20,
        "haveBanner" : false,
        "iconBackgroundColor" : "rgb(255,255,255)",
        "iconSize" : "medium",
        "noImageColor" : "rgb(212, 212, 212)",
        "overlay" : "rgba(0,0,0,0.01)",
        "templateType" : "full",
        "tileMenuEditor" : "Authenticated_Supplier_Quick_Actions",
        "titleColor" : "",
        "titleFontSize" : "large",
        "titleHorizontalAlign" : "center"
      },
      "componentName" : "community_navigation:tileMenu",
      "id" : "1f06e58e-331c-41f7-ad74-42c23ed93fa3",
      "renderPriority" : "NEUTRAL",
      "renditionMap" : { },
      "type" : "component"
    }, {
      "componentAttributes" : {
        "tabsetConfig" : {
          "UUID" : "212716b4-f84c-401b-acb9-98afa583e1b9",
          "activeTab" : "",
          "tabs" : [ {
            "UUID" : "21f38761-f1bf-40a3-9601-9de8fbfda901",
            "allowGuestUser" : false,
            "locked" : false,
            "seedComponents" : [ ],
            "tabKey" : "1",
            "tabName" : "Our News"
          }, {
            "UUID" : "c07d5528-ed8e-46c8-95e5-4d5d045e4e5b",
            "allowGuestUser" : false,
            "locked" : false,
            "seedComponents" : [ ],
            "tabKey" : "06660",
            "tabName" : "Your News"
          }, {
            "UUID" : "2d5e7088-67e1-4a9d-b743-45ffcfded002",
            "allowGuestUser" : false,
            "locked" : false,
            "seedComponents" : [ ],
            "tabKey" : "d5ff9",
            "tabName" : "ITM Connect Basics"
          }, {
            "UUID" : "3a5bac26-3a80-40ae-86c7-3d9d530b60df",
            "allowGuestUser" : false,
            "locked" : false,
            "seedComponents" : [ ],
            "tabKey" : "5c438",
            "tabName" : "The Tech's Word"
          } ],
          "useOverflowMenu" : false
        }
      },
      "componentName" : "forceCommunity:tabset",
      "id" : "212716b4-f84c-401b-acb9-98afa583e1b9",
      "regions" : [ {
        "components" : [ {
          "componentAttributes" : {
            "richTextValue" : "Remplacez ce texte par votre propre contenu."
          },
          "componentName" : "forceCommunity:richTextInline",
          "id" : "fba9a3a2-fa8b-4a24-a12d-a6d84efd36e1",
          "renditionMap" : {
            "fr" : "53bad216-eb0f-45f1-aa72-52e5b44a9128"
          },
          "renditions" : [ {
            "id" : "53bad216-eb0f-45f1-aa72-52e5b44a9128",
            "renditionValue" : {
              "componentAttributes" : {
                "richTextValue" : "<p><b style=\"color: black;\"><i><u>Le 5/12/2020</u></i></b></p>\n<p><br /></p>\n<h3 style=\"text-align: center;\">Intermarch&eacute; demande &agrave; ses &eacute;quipes achats de finaliser, d’ici la fin de l’ann&eacute;e, sa campagne annuelle de n&eacute;gociations commerciales avec les PME fran&ccedil;aises partenaires de l’enseigne.</h3>\n<p style=\"text-align: center;\"><br /></p>\n<p style=\"text-align: center;\"><img class=\"sfdcCbImage\" src=\"{!contentAsset.AdobeStock_277531043.1}\" style=\"width: 395.234px; height: 263.812px;\" /></p>\n<p><br /></p>\n<p><br /></p>\n<p><br /></p>\n<p><b style=\"color: black; font-size: 16px;\">En cette p&eacute;riode intense pour nos #acheteurs</b><span style=\"color: black; font-size: 16px;\">, nos &eacute;quipes se mobilisent pour finaliser la campagne de #n&eacute;gociations commerciales avant le 31 d&eacute;cembre pour un maximum de nos #PME partenaires fran&ccedil;aises, et ce sans demander de baisse des prix d’achat ! Au total, ce sont </span><b style=\"color: black; font-size: 16px;\">5000 PME fran&ccedil;aises</b><span style=\"color: black; font-size: 16px;\"> &agrave; qui nous donnons, gr&acirc;ce &agrave; nos relations durables, des perspectives positives.</span></p>\n<p><br /></p>\n<p><a href=\"https://www.mousquetaires.com/communique/intermarche-souhaite-finaliser-ses-negociations-commerciales-avec-pme-franaises-avant-fin-dannne/\" target=\"_blank\">https://www.mousquetaires.com/communique/intermarche-souhaite-finaliser-ses-negociations-commerciales-avec-pme-franaises-avant-fin-dannne</a></p>\n<p>&nbsp;</p>"
              }
            },
            "type" : "renditionComponent"
          } ],
          "type" : "component"
        } ],
        "id" : "21f38761-f1bf-40a3-9601-9de8fbfda901",
        "regionLabel" : "Our News",
        "regionName" : "1",
        "renditionMap" : {
          "fr" : "301d8333-857a-4e75-bd48-e0f4d11ceb5b"
        },
        "renditions" : [ {
          "id" : "301d8333-857a-4e75-bd48-e0f4d11ceb5b",
          "renditionValue" : {
            "regionLabel" : "Nos Actus"
          },
          "type" : "renditionComponent"
        } ],
        "type" : "region"
      }, {
        "components" : [ {
          "componentAttributes" : {
            "context" : "GLOBAL",
            "recordId" : "{!recordId}",
            "width" : "MEDIUM"
          },
          "componentName" : "forceCommunity:feedPublisher",
          "id" : "be677a60-d718-49ae-9588-e6218b809cbc",
          "renditionMap" : { },
          "type" : "component"
        } ],
        "id" : "c07d5528-ed8e-46c8-95e5-4d5d045e4e5b",
        "regionLabel" : "Your News",
        "regionName" : "06660",
        "renditionMap" : {
          "fr" : "bc205081-9d85-4e00-a498-9a3dda2e8402"
        },
        "renditions" : [ {
          "id" : "bc205081-9d85-4e00-a498-9a3dda2e8402",
          "renditionValue" : {
            "regionLabel" : "Vos Nouvelles"
          },
          "type" : "renditionComponent"
        } ],
        "type" : "region"
      }, {
        "components" : [ {
          "componentAttributes" : {
            "bannerText" : "Here you will find a quick overview and explanation of all functionalities available.",
            "bannerTextWithKnowledge" : "Explore other <a href=\"javascript:void(0)\" class=\"headlineArticles\">articles</a> and <a href=\"javascript:void(0)\" class=\"headlineDiscussions\">discussions</a> on this topic.",
            "bannerTextWithoutKnowledge" : "Explore other <a href=\"javascript:void(0)\" class=\"headlineDiscussions\">discussions</a> on this topic.",
            "pageType" : "",
            "showSubTopics" : true,
            "title" : "Help is around the corner.",
            "uniqueNameOrId" : ""
          },
          "componentName" : "forceCommunity:headline",
          "id" : "f3978c96-57a1-4b4c-b2c1-451b85d9780c",
          "renditionMap" : {
            "fr" : "23f7d54d-2be4-43f9-9543-10e9bcde5dcb"
          },
          "renditions" : [ {
            "id" : "23f7d54d-2be4-43f9-9543-10e9bcde5dcb",
            "renditionValue" : {
              "componentAttributes" : {
                "bannerText" : "",
                "title" : "Besoin d'aide?"
              }
            },
            "type" : "renditionComponent"
          } ],
          "type" : "component"
        }, {
          "componentAttributes" : {
            "richTextValue" : "<h1 style=\"text-align: center;\"><img class=\"sfdcCbImage\" src=\"{!contentAsset.johannespleniofmTde1Fe23Aunsplash.1}\" style=\"width: 340.078px; height: 226.719px;\" /></h1>\n<h1><br /></h1>\n<h1><br /></h1>\n<h1><span style=\"color: rgb(68, 68, 68);\">1. How-to : Statements</span></h1>\n<h3>What is the Statements menu for ?</h3>\n<p><br /></p>\n<p>The statements menu allows suppliers to state the following information on a regular basis :</p>\n<p><br /></p>\n<h1><span style=\"color: rgb(68, 68, 68);\">2. How-to : Documents Center</span></h1>\n<p><br /></p>\n<h3>What is the Documents Center for ?</h3>\n<p><br /></p>\n<p>In the Documents Center menu, you can both upload any information you would like the buyer to be aware of, but also review new documents made available to you.</p>\n<p><br /></p>\n<h1><span style=\"color: rgb(68, 68, 68);\">3. How-to : eRFXs</span></h1>\n<p><br /></p>\n<h3>What is the eRFXs menu for ?</h3>\n<p><br /></p>\n<p>eRFX is an acronym for e- (online) Request For X. Alternatively,&nbsp;&nbsp;</p>\n<p>&nbsp;</p>"
          },
          "componentName" : "forceCommunity:richTextInline",
          "id" : "eebd80bb-3a11-4b87-8abd-0e953a47e2a6",
          "renditionMap" : {
            "fr" : "6ed57f01-4909-4873-a0ae-1a68b916962c"
          },
          "renditions" : [ {
            "id" : "6ed57f01-4909-4873-a0ae-1a68b916962c",
            "renditionValue" : {
              "componentAttributes" : {
                "richTextValue" : "<h1 style=\"text-align: center;\"><img class=\"sfdcCbImage\" src=\"{!contentAsset.johannespleniofmTde1Fe23Aunsplash.1}\" style=\"width: 323.312px; height: 215.531px;\" /></h1>\n<h1><br /></h1>\n<h1><span style=\"font-size: 28px; color: black;\">1. Comment faire&nbsp;? Les D&eacute;clarations</span></h1>\n<h2><br /></h2>\n<h2><span style=\"color: rgb(136, 136, 136);\">Utilisation du menu D&eacute;clarations </span></h2>\n<p><br /></p>\n<p><span style=\"color: black; font-family: helvetica;\">Le menu D&eacute;clarations vous permet d’enregistrer facilement vos principales d&eacute;clarations commerciales, directement dans l’application ou par import Excel. </span></p>\n<p><br /></p>\n<p><span style=\"color: black; font-family: helvetica;\">Et pour ne rien oublier, vous pouvez choisir des recevoir des notifications email et/ou push-up a une fr&eacute;quence pr&eacute;d&eacute;finie. </span></p>\n<p><br /></p>\n<p><br /></p>\n<h1><span style=\"font-size: 28px; color: black;\">2. Comment faire&nbsp;? La Gestion Documentaire</span></h1>\n<p><br /></p>\n<h2><span style=\"color: rgb(136, 136, 136); font-family: helvetica;\">Utilisation du menu Gestion Documentaire </span></h2>\n<p><br /></p>\n<p><span style=\"color: black; font-family: helvetica;\">Le menu de Gestion Documentaire vous garantit un suivi r&eacute;gulier de la conformit&eacute; de vos documents. Il vous rappelle quand les d&eacute;poser, mais vous permet aussi de faire des enregistrements spontan&eacute;s.&nbsp;</span></p>\n<p><br /></p>\n<h1><span style=\"color: rgb(68, 68, 68);\">2. How-to : Documents Center</span></h1>\n<p><br /></p>\n<h3>What is the Documents Center for ?</h3>\n<p><br /></p>\n<p>In the Documents Center menu, you can both upload any information you would like the buyer to be aware of, but also review new documents made available to you.</p>\n<p><br /></p>\n<h1><span style=\"font-size: 28px; color: black;\">3. Comment faire&nbsp;? Le menu eRFX</span></h1>\n<p><br /></p>\n<h3>What is the eRFXs menu for ?</h3>\n<p><br /></p>\n<p><span style=\"color: black;\">eRFX est un acronynime signifiant Request for X. C’est un v&eacute;ritable outil d’appel d’offres en ligne. </span></p>\n<p><span style=\"color: black;\"> Il vous permet de vous pr&eacute;-qualifier ou de d’envoyer directement vos soumissions a l’acheteur de fa&ccedil;on s&eacute;curis&eacute;e.&nbsp;</span>&nbsp;</p>"
              }
            },
            "type" : "renditionComponent"
          } ],
          "type" : "component"
        } ],
        "id" : "2d5e7088-67e1-4a9d-b743-45ffcfded002",
        "regionLabel" : "ITM Connect Basics",
        "regionName" : "d5ff9",
        "renditionMap" : {
          "fr" : "47410725-90af-4cb4-9958-2d720d73fa7a"
        },
        "renditions" : [ {
          "id" : "47410725-90af-4cb4-9958-2d720d73fa7a",
          "renditionValue" : {
            "regionLabel" : "B.A-BA ITM Connect"
          },
          "type" : "renditionComponent"
        } ],
        "type" : "region"
      }, {
        "components" : [ {
          "componentAttributes" : {
            "richTextValue" : "<h1>Our Latest Release is Here !</h1>\n<p><br /></p>\n<p><i>Release Date : 20.11.2020</i></p>\n<p><br /></p>\n<p><img class=\"sfdcCbImage\" src=\"{!contentAsset.Surprise_Banner.1}\" style=\"width: 621.525px; height: 263.062px;\" /></p>\n<p><br /></p>\n<p><b style=\"font-family: helvetica; color: rgb(0, 0, 0);\"><u>NEW FEATURES : </u></b></p>\n<p><br /></p>\n<ul>\n <li>Ability to plan your meeting and important actions</li>\n <li>Check out how we are promoting your items in store</li>\n <li>Check out our social media page directly from your portal</li>\n <li>Sign your contracts online</li>\n</ul>\n<p><br /></p>\n<p><b style=\"font-family: helvetica;\"><u>ENHANCEMENTS: </u></b></p>\n<p><br /></p>\n<ul>\n <li>Improved color coding on Net Prices Statements</li>\n <li>Be notified of your Excel import success or failure</li>\n <li>Ability to navigate Most Commonly Asked questions with navigation topics</li>\n</ul>\n<p><br /></p>\n<p><br /></p>\n<p><br /></p>\n<h2>Previous Releases</h2>\n<p><i>Date: 09.09.2020</i></p>\n<p><br /></p>\n<p><b style=\"color: rgb(0, 0, 0); font-family: helvetica;\"><u>NEW FEATURES : </u></b></p>\n<p><br /></p>\n<ul>\n <li>Ability to state net prices</li>\n <li>Ability to state price increases</li>\n</ul>\n<p><br /></p>\n<p><b style=\"font-family: helvetica;\"><u>ENHANCEMENTS: </u></b></p>\n<p><br /></p>\n<ul>\n <li>Improved color coding on eRFXs</li>\n <li>Improved layout on contracts</li>\n</ul>"
          },
          "componentName" : "forceCommunity:richTextInline",
          "id" : "52053028-aba0-40f4-804c-2fdb7f245c7e",
          "renditionMap" : {
            "fr" : "1b0bad08-cf9f-424d-8ad6-630e301a150e"
          },
          "renditions" : [ {
            "id" : "1b0bad08-cf9f-424d-8ad6-630e301a150e",
            "renditionValue" : {
              "componentAttributes" : {
                "richTextValue" : "<h1><span style=\"color: rgb(0, 0, 0);\">Notre derni&egrave;re release est l&agrave;! </span></h1>\n<p>&nbsp;</p>\n<p><i style=\"color: black;\">Date de sortie: 8.12.2020</i></p>\n<p>&nbsp;</p>\n<p><img class=\"sfdcCbImage\" src=\"{!contentAsset.Surprise_Banner.1}\" /></p>\n<p><br /></p>\n<p>&nbsp;</p>\n<p><b style=\"color: black;\"><u>NOUVELLES FONCTIONNALITES&nbsp;:&nbsp;&nbsp;</u></b></p>\n<p>&nbsp;</p>\n<p>&middot;&nbsp;&nbsp;&nbsp;&nbsp;&nbsp;&nbsp;&nbsp;&nbsp;<span style=\"color: black;\">Possibilit&eacute; d’acc&eacute;der au portail fournisseur</span></p>\n<p>&middot;&nbsp;&nbsp;&nbsp;&nbsp;&nbsp;&nbsp;&nbsp;&nbsp;<span style=\"color: black;\">Possibilit&eacute; de se connecter la page de d&eacute;claration des PAN </span></p>\n<p><br /></p>\n<p><b style=\"color: black;\"><u>AMELIORATIONS: </u></b></p>\n<p>&nbsp;</p>\n<p>&middot;&nbsp;&nbsp;&nbsp;&nbsp;&nbsp;&nbsp;&nbsp;&nbsp;<span style=\"color: black;\">Am&eacute;lioration des &eacute;tapes de navigation sur le portail fournisseur</span></p>\n<p>&middot;&nbsp;&nbsp;&nbsp;&nbsp;&nbsp;&nbsp;&nbsp;&nbsp;<span style=\"color: black;\">Am&eacute;lioration du design global </span></p>\n<p>&nbsp;</p>\n<p>&nbsp;</p>\n<h2><b>Releases Pr&eacute;c&eacute;dentes</b></h2>\n<p><i style=\"color: black;\">Date de sortie: 8.11.2020</i></p>\n<p><br /></p>\n<h1><br /></h1>"
              }
            },
            "type" : "renditionComponent"
          } ],
          "type" : "component"
        } ],
        "id" : "3a5bac26-3a80-40ae-86c7-3d9d530b60df",
        "regionLabel" : "The Tech's Word",
        "regionName" : "5c438",
        "renditionMap" : {
          "fr" : "2891d4db-fed9-43cd-9b76-1b16f3ad36e7"
        },
        "renditions" : [ {
          "id" : "2891d4db-fed9-43cd-9b76-1b16f3ad36e7",
          "renditionValue" : {
            "regionLabel" : "Le Mot de la Tech"
          },
          "type" : "renditionComponent"
        } ],
        "type" : "region"
      } ],
      "renderPriority" : "NEUTRAL",
      "renditionMap" : { },
      "type" : "component"
    } ],
    "id" : "ae3f2069-4fb6-498a-a594-a72017051b9e",
    "regionName" : "content",
    "type" : "region"
  }, {
    "id" : "8c64de2a-bd95-470d-b18b-592fa0a8f8c5",
    "regionName" : "footer",
    "type" : "region"
  }, {
    "components" : [ {
      "componentAttributes" : {
        "customHeadTags" : "",
        "description" : "",
        "title" : "Home"
      },
      "componentName" : "forceCommunity:seoAssistant",
      "id" : "80e61609-1ae9-4240-8fbf-22077bf2c259",
      "renditionMap" : { },
      "type" : "component"
    } ],
    "id" : "0454fc88-1d9d-4a2f-9376-750459d8fb29",
    "regionName" : "sfdcHiddenRegion",
    "type" : "region"
  }, {
    "components" : [ {
      "componentAttributes" : {
        "bannerImageUrl" : "https://negoptim-mousquetaires--qualif1--c.documentforce.com/sfc/servlet.shepherd/version/renditionDownload?rendition=ORIGINAL_Jpg&versionId=0689E000001GxgN&operationContext=CHATTER&contentId=05T9E000005o2WE",
        "buttonLabel" : "",
        "buttonUrl" : "",
        "buttonVariant" : "brand",
        "description" : "",
        "descriptionColor" : "#fff",
        "descriptionSize" : "regular",
        "height" : 50,
        "textAlign" : "left",
        "textHeight" : 150,
        "textOverlayBackground" : "rgba(0,0,0,0.2)",
        "textPosition" : "overlay",
        "title" : "Talk To Us",
        "titleColor" : "#fff",
        "titleSize" : "medium"
      },
      "componentName" : "cloudx_cms:SS_uiImageBanner",
      "id" : "ec1ef3e2-6bc6-4f80-8b99-46103656fd11",
      "renderPriority" : "NEUTRAL",
      "renditionMap" : {
        "fr" : "785ac204-e555-4aa1-8ccd-ca216f7f5fca"
      },
      "renditions" : [ {
        "id" : "785ac204-e555-4aa1-8ccd-ca216f7f5fca",
        "renditionValue" : {
          "componentAttributes" : {
            "bannerImageUrl" : "https://negoptim-mousquetaires--sandbox1--c.documentforce.com/sfc/servlet.shepherd/version/renditionDownload?rendition=ORIGINAL_Jpg&versionId=0681w000001C0vS&operationContext=CHATTER&contentId=05T1w000005QMhO",
            "title" : "Dîtes-Nous Tout"
          }
        },
        "type" : "renditionComponent"
      } ],
      "type" : "component"
    }, {
      "componentAttributes" : {
        "label" : "Choose Your Language",
        "pickerAlignment" : "left"
      },
      "componentName" : "forceCommunity:languageSelector43",
      "id" : "6620b9a5-9586-4eaf-bf6e-11b3cab5125e",
      "renderPriority" : "NEUTRAL",
      "renditionMap" : {
        "fr" : "6aebbbab-5692-40e7-b523-e4b8d4bc5756"
      },
      "renditions" : [ {
        "id" : "6aebbbab-5692-40e7-b523-e4b8d4bc5756",
        "renditionValue" : {
          "componentAttributes" : {
            "label" : "Sélection du langage"
          }
        },
        "type" : "renditionComponent"
      } ],
      "type" : "component"
    }, {
      "componentAttributes" : {
        "headerLabel" : "Recent Messages"
      },
      "componentName" : "forceChatter:newMessageNotification",
      "id" : "6b2c11e2-6b44-4d0d-a9aa-fcfccc9cf332",
      "renderPriority" : "NEUTRAL",
      "renditionMap" : {
        "fr" : "0d6eef25-f270-48ac-b4c8-c4c0241c4f67"
      },
      "renditions" : [ {
        "id" : "0d6eef25-f270-48ac-b4c8-c4c0241c4f67",
        "renditionValue" : {
          "componentAttributes" : {
            "headerLabel" : "Derniers Messages"
          }
        },
        "type" : "renditionComponent"
      } ],
      "type" : "component"
    }, {
      "componentAttributes" : {
        "askCommunityLabel" : "Check Our FAQ",
        "buttonBgColor" : "",
        "buttonBgHoverColor" : "",
        "buttonBorderColor" : "",
        "buttonRadius" : 25,
        "buttonTextColor" : "",
        "buttonTextHoverColor" : "",
        "buttonTwoBgColor" : "",
        "buttonTwoBgHoverColor" : "",
        "buttonTwoBorderColor" : "",
        "buttonTwoRadius" : 25,
        "buttonTwoTextColor" : "",
        "buttonTwoTextHoverColor" : "",
        "confirmationMessage" : "Got it!",
        "contactSupportLabel" : "Or Contact Us",
        "followUpPromptLabel" : "Can we close your question?",
        "headerLabel" : "Need Help?",
        "isAskFollowPromptEnabled" : true,
        "isIncludeArticlesEnabled" : true,
        "isIncludeDiscussionsEnabled" : true,
        "isInitialSatisfactionPromptEnabled" : true,
        "isPublisherDeflectionEnabled" : true,
        "maxSuggestions" : 5,
        "satisfactionPromptLabel" : "Did we help to answer your question?",
        "showDetails" : false,
        "showTopics" : true
      },
      "componentName" : "siteforce:napiliFooter",
      "id" : "c55ef6dd-7e71-4ac7-a8c3-b21de4b71a27",
      "renderPriority" : "NEUTRAL",
      "renditionMap" : {
        "fr" : "9c3a14a6-77ab-44ed-9a87-11491ffc28a4"
      },
      "renditions" : [ {
        "id" : "9c3a14a6-77ab-44ed-9a87-11491ffc28a4",
        "renditionValue" : {
          "componentAttributes" : {
            "askCommunityLabel" : "Consulter la FAQ",
            "contactSupportLabel" : "Parlez-Nous",
            "headerLabel" : "Besoin d'aide?"
          }
        },
        "type" : "renditionComponent"
      } ],
      "type" : "component"
    } ],
    "id" : "1b9b53b2-f26d-44e3-8de9-221cad272c43",
    "regionName" : "sidebar",
    "type" : "region"
  } ],
  "themeLayoutType" : "Home",
  "type" : "view",
  "viewType" : "home"
}