{
  "appPageId" : "63d16848-c106-4c0c-8e45-da8e705cdeb9",
  "componentName" : "siteforce:dynamicLayout",
  "id" : "ed619fc0-b134-40cb-9883-6729406514ff",
  "label" : "Lieux Fonction - En-tête",
  "regions" : [ {
    "components" : [ {
      "componentAttributes" : {
        "background" : "background: rgba(0,0,0,0)",
        "backgroundOverlay" : "rgba(0,0,0,0.5)",
        "contentAreaWidth" : 100,
        "sectionConfig" : {
          "UUID" : "613f3813-c103-40b5-9313-2662aeaa5a35",
          "columns" : [ {
            "UUID" : "264976b1-d598-4ca8-b043-2ad2ca83f59a",
            "columnKey" : "1",
            "columnName" : "Column 1",
            "columnWidth" : "12",
            "seedComponents" : [ ]
          } ]
        },
        "sectionHeight" : 300
      },
      "componentName" : "forceCommunity:section",
      "id" : "613f3813-c103-40b5-9313-2662aeaa5a35",
      "regions" : [ {
        "components" : [ {
          "componentAttributes" : {
            "bannerImageUrl" : "https://negoptim-mousquetaires--sandbox1--c.documentforce.com/sfc/servlet.shepherd/version/renditionDownload?rendition=ORIGINAL_Jpg&versionId=0681w000001CgSZ&operationContext=CHATTER&contentId=05T1w000005cJUB",
            "buttonLabel" : "",
            "buttonUrl" : "",
            "buttonVariant" : "brand",
            "description" : "Commencez par sélectionner une entité ci-dessous",
            "descriptionColor" : "#fff",
            "descriptionSize" : "regular",
            "height" : 150,
            "textAlign" : "left",
            "textHeight" : 150,
            "textOverlayBackground" : "rgba(0,0,0,0.4)",
            "textPosition" : "overlay",
            "title" : "Vérifier mes informations administratives",
            "titleColor" : "#fff",
            "titleSize" : "large"
          },
          "componentName" : "cloudx_cms:SS_uiImageBanner",
          "id" : "43816d7f-bac6-40a6-94ad-3100ab5be987",
          "renderPriority" : "NEUTRAL",
          "renditionMap" : { },
          "type" : "component"
        }, {
          "componentAttributes" : {
            "enableInlineEdit" : true,
            "filterName" : "Recent",
            "layout" : "STANDARD",
            "pageSize" : 25,
            "scope" : "ULiT_Negoptim__Global_Location__c",
            "showActionBar" : true,
            "showChartsPanel" : true,
            "showDisplay" : "showall",
            "showFilterPanel" : true,
            "showImageIcon" : true,
            "showManualRefreshButton" : true,
            "showObjectName" : true,
            "showPinnedList" : true,
            "showSearchBar" : true
          },
          "componentName" : "forceCommunity:objectHome",
          "id" : "c8d330c8-8538-4eed-b9cd-73fe21fb1638",
          "renderPriority" : "NEUTRAL",
          "renditionMap" : { },
          "type" : "component"
        } ],
        "id" : "264976b1-d598-4ca8-b043-2ad2ca83f59a",
        "regionLabel" : "Column 1",
        "regionName" : "1",
        "renditionMap" : { },
        "type" : "region"
      } ],
      "renderPriority" : "NEUTRAL",
      "renditionMap" : { },
      "type" : "component"
    } ],
    "id" : "85a0c9b0-4704-4911-8754-dbab9fb0117f",
    "regionName" : "content",
    "type" : "region"
  }, {
    "components" : [ {
      "componentAttributes" : {
        "customHeadTags" : "",
        "description" : "",
        "title" : "Lieux Fonction - En-tête"
      },
      "componentName" : "forceCommunity:seoAssistant",
      "id" : "f92f0615-eaae-4500-ace9-532606881bdc",
      "renditionMap" : { },
      "type" : "component"
    } ],
    "id" : "906c90f3-1de5-415f-8c4a-0a9c8c3fbd3f",
    "regionName" : "sfdcHiddenRegion",
    "type" : "region"
  } ],
  "themeLayoutType" : "Inner",
  "type" : "view",
  "viewType" : "custom-lieux-fonction-en-tte"
}