{
  "appPageId" : "63d16848-c106-4c0c-8e45-da8e705cdeb9",
  "componentName" : "siteforce:dynamicLayout",
  "id" : "2a31a063-718e-4b09-84f6-5d1717100fa4",
  "label" : "Market Analysis",
  "regions" : [ {
    "components" : [ {
      "componentAttributes" : {
        "background" : "background: rgba(0,0,0,0)",
        "backgroundOverlay" : "rgba(0,0,0,0.5)",
        "contentAreaWidth" : 100,
        "sectionConfig" : {
          "UUID" : "21d37403-0f8a-419d-840e-7bf2b36de0d7",
          "columns" : [ {
            "UUID" : "a92939c9-7d1b-4a1a-af34-4a7f60d5bf8c",
            "columnKey" : "1",
            "columnName" : "Column 1",
            "columnWidth" : "12",
            "seedComponents" : [ ]
          } ]
        },
        "sectionHeight" : 300
      },
      "componentName" : "forceCommunity:section",
      "id" : "21d37403-0f8a-419d-840e-7bf2b36de0d7",
      "regions" : [ {
        "components" : [ {
          "componentAttributes" : {
            "flowArguments" : "[]",
            "flowLayout" : "oneColumn",
            "flowName" : "SCREEN_DOCUMENTS_Center_Document_Upload"
          },
          "componentName" : "forceCommunity:flowCommunity",
          "id" : "14c40f39-3d1f-4ae8-b1a0-926a33b9b9ce",
          "renderPriority" : "NEUTRAL",
          "renditionMap" : { },
          "type" : "component"
        }, {
          "componentAttributes" : {
            "enableInlineEdit" : false,
            "filterName" : "Recent",
            "layout" : "FULL",
            "pageSize" : 25,
            "scope" : "ULiT_Negoptim__Contract_Document__c",
            "showActionBar" : false,
            "showChartsPanel" : false,
            "showDisplay" : "grid",
            "showFilterPanel" : false,
            "showImageIcon" : false,
            "showManualRefreshButton" : false,
            "showObjectName" : false,
            "showPinnedList" : false,
            "showSearchBar" : false
          },
          "componentName" : "forceCommunity:objectHome",
          "id" : "f6f44834-5e30-49c8-9ac6-8de4acbffd02",
          "renderPriority" : "NEUTRAL",
          "renditionMap" : { },
          "type" : "component"
        } ],
        "id" : "a92939c9-7d1b-4a1a-af34-4a7f60d5bf8c",
        "regionLabel" : "Column 1",
        "regionName" : "1",
        "renditionMap" : { },
        "type" : "region"
      } ],
      "renderPriority" : "NEUTRAL",
      "renditionMap" : { },
      "type" : "component"
    } ],
    "id" : "7b6e6961-f923-4999-8f17-ebb0f9eac76d",
    "regionName" : "content",
    "type" : "region"
  }, {
    "components" : [ {
      "componentAttributes" : {
        "customHeadTags" : "",
        "description" : "",
        "title" : "Market Analysis"
      },
      "componentName" : "forceCommunity:seoAssistant",
      "id" : "16005c6d-c31f-45ce-8a8d-10bd42a09524",
      "renditionMap" : { },
      "type" : "component"
    } ],
    "id" : "d0b23d3b-365f-4cc2-b479-d4c5bf0cc8a1",
    "regionName" : "sfdcHiddenRegion",
    "type" : "region"
  } ],
  "themeLayoutType" : "Inner",
  "type" : "view",
  "viewType" : "custom-market-analysis"
}