{
  "appPageId" : "63d16848-c106-4c0c-8e45-da8e705cdeb9",
  "componentName" : "siteforce:sldsOneColLayout",
  "id" : "6daa2add-6d8e-4dc5-9f6c-afccf0d9e329",
  "label" : "Modèles de fichier vierge Liste",
  "regions" : [ {
    "id" : "0ae77e1b-a183-45bc-8499-4832a8fc5a58",
    "regionName" : "header",
    "type" : "region"
  }, {
    "components" : [ {
      "componentAttributes" : {
        "enableInlineEdit" : true,
        "filterName" : "{!filterId}",
        "layout" : "FULL",
        "pageSize" : 25,
        "scope" : "{!objectName}",
        "showActionBar" : true,
        "showChartsPanel" : true,
        "showDisplay" : "showall",
        "showFilterPanel" : true,
        "showImageIcon" : true,
        "showManualRefreshButton" : true,
        "showObjectName" : true,
        "showPinnedList" : true,
        "showSearchBar" : true
      },
      "componentName" : "forceCommunity:objectHome",
      "id" : "a670e1da-1703-44a4-b62d-963e099ad6b0",
      "renderPriority" : "NEUTRAL",
      "renditionMap" : { },
      "type" : "component"
    } ],
    "id" : "4c5f51ec-7b82-4b5d-9212-a94322085d79",
    "regionName" : "content",
    "type" : "region"
  }, {
    "id" : "6b0d6a0d-1c83-4dcb-830d-cd648a42dc1b",
    "regionName" : "footer",
    "type" : "region"
  } ],
  "themeLayoutType" : "Inner",
  "type" : "view",
  "viewType" : "list-a24"
}