{
  "appPageId" : "63d16848-c106-4c0c-8e45-da8e705cdeb9",
  "componentName" : "siteforce:dynamicLayout",
  "id" : "1ef90da2-51e7-4f12-8634-b87a6f6cd48f",
  "label" : "My Library",
  "regions" : [ {
    "components" : [ {
      "componentAttributes" : {
        "background" : "background: rgba(0,0,0,0)",
        "backgroundOverlay" : "rgba(0,0,0,0.5)",
        "contentAreaWidth" : 100,
        "sectionConfig" : {
          "UUID" : "7fd8ebdf-2db8-43cc-bec8-b2e1240cbae5",
          "columns" : [ {
            "UUID" : "70219661-50ab-4873-b960-78ffba49eb2e",
            "columnKey" : "1",
            "columnName" : "Column 1",
            "columnWidth" : "12",
            "seedComponents" : [ ]
          } ]
        },
        "sectionHeight" : 300
      },
      "componentName" : "forceCommunity:section",
      "id" : "7fd8ebdf-2db8-43cc-bec8-b2e1240cbae5",
      "regions" : [ {
        "components" : [ {
          "componentAttributes" : {
            "pageSize" : 25
          },
          "componentName" : "forceCommunity:filesList",
          "id" : "002959ee-246f-4c9d-ab5d-2e3c2b3aa178",
          "renderPriority" : "NEUTRAL",
          "renditionMap" : { },
          "type" : "component"
        } ],
        "id" : "70219661-50ab-4873-b960-78ffba49eb2e",
        "regionLabel" : "Column 1",
        "regionName" : "1",
        "renditionMap" : { },
        "type" : "region"
      } ],
      "renderPriority" : "NEUTRAL",
      "renditionMap" : { },
      "type" : "component"
    } ],
    "id" : "26bb5946-5c08-48d3-8d15-bf8a18a0ecb7",
    "regionName" : "content",
    "type" : "region"
  }, {
    "components" : [ {
      "componentAttributes" : {
        "customHeadTags" : "",
        "description" : "",
        "title" : "My Library"
      },
      "componentName" : "forceCommunity:seoAssistant",
      "id" : "e7d9e47a-c5cb-4665-8354-5cce0022219f",
      "renditionMap" : { },
      "type" : "component"
    } ],
    "id" : "3a9d9d1e-fd47-43a0-8168-294fdbacca13",
    "regionName" : "sfdcHiddenRegion",
    "type" : "region"
  } ],
  "themeLayoutType" : "Inner",
  "type" : "view",
  "viewType" : "custom-my-library"
}