{
  "appPageId" : "63d16848-c106-4c0c-8e45-da8e705cdeb9",
  "componentName" : "siteforce:sldsOneColLayout",
  "id" : "62d4bdef-1545-411e-af17-e83c8fe6b950",
  "label" : "My Settings",
  "regions" : [ {
    "id" : "cb696d77-e3a3-4d38-98d6-5a904497b261",
    "regionName" : "header",
    "type" : "region"
  }, {
    "components" : [ {
      "componentAttributes" : {
        "id" : "{!CurrentUser.id}",
        "showFullPhotoAsCircle" : true,
        "showReputation" : false
      },
      "componentName" : "forceCommunity:userProfileHeader",
      "id" : "961640fc-599c-45f2-8e8a-d8f4fcf0159b",
      "renderPriority" : "NEUTRAL",
      "renditionMap" : { },
      "type" : "component"
    }, {
      "componentAttributes" : {
        "accountSectionTitle" : "Account",
        "accountTabName" : "Account Details",
        "connectedSourcesTabName" : "",
        "emailNotificationsTitle" : "Email Notifications",
        "emailSectionDescText" : "When email notifications are enabled, email me when someone:",
        "hideChatterNotificationSettings" : false,
        "hideConnectedSources" : false,
        "hideEmailNotificationSettings" : true,
        "hideProfileVisibilitySettings" : true,
        "id" : "{!CurrentUser.id}",
        "locationTitle" : "Location",
        "profileSectionDescText" : "Customize who is able to see what on your profile page",
        "profileSectionToolTipText" : "Restricted: Visible to the employees of the company that created the site. Members: Visible to logged-in members. Public: Visible to anyone viewing pages that don't require login.",
        "profileVisibilityTitle" : "Profile Visibility",
        "settingsPageTitle" : "My Settings"
      },
      "componentName" : "forceCommunity:userSettingsCustomizable",
      "id" : "f804b4d6-8f06-4e9c-9758-3f21891ec208",
      "renderPriority" : "NEUTRAL",
      "renditionMap" : {
        "fr" : "437f1621-fd6e-4b8b-bcb5-8e05142eee01"
      },
      "renditions" : [ {
        "id" : "437f1621-fd6e-4b8b-bcb5-8e05142eee01",
        "renditionValue" : {
          "componentAttributes" : {
            "accountSectionTitle" : "Compte",
            "accountTabName" : "Mon Compte",
            "connectedSourcesTabName" : "",
            "emailNotificationsTitle" : "Notifications",
            "emailSectionDescText" : "Si les notifications e-mail sont activées, m'envoyer un email lorsque quelqu'un:",
            "hideEmailNotificationSettings" : "true",
            "hideProfileVisibilitySettings" : "true",
            "locationTitle" : "Localisation",
            "profileVisibilityTitle" : "Visibilité du profil",
            "settingsPageTitle" : "Mes Paramètres"
          }
        },
        "type" : "renditionComponent"
      } ],
      "type" : "component"
    } ],
    "id" : "dbd03f49-9910-4a29-bf8c-0374feaeef20",
    "regionName" : "content",
    "type" : "region"
  }, {
    "id" : "9b37f025-bc39-4cf0-b92c-f5899fbb1df1",
    "regionName" : "footer",
    "type" : "region"
  }, {
    "components" : [ {
      "componentAttributes" : {
        "customHeadTags" : "",
        "description" : "",
        "title" : "My Settings"
      },
      "componentName" : "forceCommunity:seoAssistant",
      "id" : "b2d28e46-0034-4626-aea7-0fef38c67886",
      "renditionMap" : { },
      "type" : "component"
    } ],
    "id" : "13e94a80-2b57-492e-87c0-a15c1c2fc64d",
    "regionName" : "sfdcHiddenRegion",
    "type" : "region"
  } ],
  "themeLayoutType" : "Inner",
  "type" : "view",
  "viewType" : "custom-my-settings"
}