{
  "appPageId" : "63d16848-c106-4c0c-8e45-da8e705cdeb9",
  "componentName" : "siteforce:dynamicLayout",
  "id" : "d923da7c-33db-4fef-9be4-873dc7433638",
  "label" : "Page Générique en-tête",
  "regions" : [ {
    "components" : [ {
      "componentAttributes" : {
        "background" : "background: rgba(0,0,0,0)",
        "backgroundOverlay" : "rgba(0,0,0,0.5)",
        "contentAreaWidth" : 100,
        "sectionConfig" : {
          "UUID" : "13fa24a6-cfd8-47f1-a918-9a061c992f35",
          "columns" : [ {
            "UUID" : "93b00b27-b6ec-4ee4-8b1f-5dd2ad118532",
            "columnKey" : "1",
            "columnName" : "Column 1",
            "columnWidth" : "12",
            "seedComponents" : [ ]
          } ]
        },
        "sectionHeight" : 300
      },
      "componentName" : "forceCommunity:section",
      "id" : "13fa24a6-cfd8-47f1-a918-9a061c992f35",
      "regions" : [ {
        "id" : "93b00b27-b6ec-4ee4-8b1f-5dd2ad118532",
        "regionLabel" : "Column 1",
        "regionName" : "1",
        "renditionMap" : { },
        "type" : "region"
      } ],
      "renderPriority" : "NEUTRAL",
      "renditionMap" : { },
      "type" : "component"
    } ],
    "id" : "fb995caa-0cbc-47b1-b150-f23836dee8cd",
    "regionName" : "content",
    "type" : "region"
  }, {
    "components" : [ {
      "componentAttributes" : {
        "customHeadTags" : "",
        "description" : "",
        "title" : "Page Générique en-tête"
      },
      "componentName" : "forceCommunity:seoAssistant",
      "id" : "29fe32fa-4c17-4a32-b383-821a94b12f8d",
      "renditionMap" : { },
      "type" : "component"
    } ],
    "id" : "307333bc-8068-48fa-ac63-7b92aaf0c9aa",
    "regionName" : "sfdcHiddenRegion",
    "type" : "region"
  } ],
  "themeLayoutType" : "Inner",
  "type" : "view",
  "viewType" : "custom-page-gnrique-en-tte"
}