{
  "appPageId" : "63d16848-c106-4c0c-8e45-da8e705cdeb9",
  "componentName" : "siteforce:dynamicLayout",
  "id" : "2bbf6a2d-bf90-4fd6-a564-15a8dc9c157d",
  "label" : "Price List Statements",
  "regions" : [ {
    "components" : [ {
      "componentAttributes" : {
        "background" : "background: rgba(0,0,0,0)",
        "backgroundOverlay" : "rgba(0,0,0,0.5)",
        "contentAreaWidth" : 100,
        "sectionConfig" : {
          "UUID" : "2ae1bb22-b333-4d5e-80f6-0ca047d10c0c",
          "columns" : [ {
            "UUID" : "35734e30-6f4e-4f55-8676-cf2faa3a546f",
            "columnKey" : "1",
            "columnName" : "Column 1",
            "columnWidth" : "12",
            "seedComponents" : [ ]
          } ]
        },
        "sectionHeight" : 300
      },
      "componentName" : "forceCommunity:section",
      "id" : "2ae1bb22-b333-4d5e-80f6-0ca047d10c0c",
      "regions" : [ {
        "components" : [ {
          "componentAttributes" : {
            "richTextValue" : "<p style=\"text-align: center;\"><img class=\"sfdcCbImage\" src=\"{!contentAsset.Price_List_Statement_Headline.1}\"></p>"
          },
          "componentName" : "forceCommunity:richTextInline",
          "id" : "ae20600f-33df-4173-87da-e5a0546b3ade",
          "renderPriority" : "NEUTRAL",
          "renditionMap" : { },
          "type" : "component"
        }, {
          "componentAttributes" : {
            "enableInlineEdit" : true,
            "filterName" : "00B9E000003BmrWUAS",
            "layout" : "STANDARD",
            "pageSize" : 25,
            "scope" : "ULiT_Negoptim__Price_List_Statement__c",
            "showActionBar" : false,
            "showChartsPanel" : false,
            "showDisplay" : "grid",
            "showFilterPanel" : false,
            "showImageIcon" : false,
            "showManualRefreshButton" : true,
            "showObjectName" : true,
            "showPinnedList" : true,
            "showSearchBar" : true
          },
          "componentName" : "forceCommunity:objectHome",
          "id" : "d864ca97-591c-4d34-b253-7654ea90822a",
          "renderPriority" : "NEUTRAL",
          "renditionMap" : { },
          "type" : "component"
        } ],
        "id" : "35734e30-6f4e-4f55-8676-cf2faa3a546f",
        "regionLabel" : "Column 1",
        "regionName" : "1",
        "renditionMap" : { },
        "type" : "region"
      } ],
      "renderPriority" : "NEUTRAL",
      "renditionMap" : { },
      "type" : "component"
    } ],
    "id" : "6470ecb3-dd22-4f98-b1e6-bd596cb150b3",
    "regionName" : "content",
    "type" : "region"
  }, {
    "components" : [ {
      "componentAttributes" : {
        "customHeadTags" : "",
        "description" : "",
        "title" : "Price List Statements"
      },
      "componentName" : "forceCommunity:seoAssistant",
      "id" : "182d2c90-7cb9-4f62-ae94-0fc8e7c510cd",
      "renditionMap" : { },
      "type" : "component"
    } ],
    "id" : "233157c5-56d2-4875-9c42-e8fabea55344",
    "regionName" : "sfdcHiddenRegion",
    "type" : "region"
  } ],
  "themeLayoutType" : "Inner",
  "type" : "view",
  "viewType" : "custom-price-list-statements"
}