{
  "appPageId" : "63d16848-c106-4c0c-8e45-da8e705cdeb9",
  "componentName" : "siteforce:dynamicLayout",
  "id" : "749a100c-2092-4026-9b1e-859d8e02e3d7",
  "label" : "Price List - Approval Pending",
  "regions" : [ {
    "components" : [ {
      "componentAttributes" : {
        "background" : "background: rgba(0,0,0,0)",
        "backgroundOverlay" : "rgba(0,0,0,0.5)",
        "contentAreaWidth" : 100,
        "sectionConfig" : {
          "UUID" : "04721ced-fb37-48be-9278-36b95ea73718",
          "columns" : [ {
            "UUID" : "210483a3-6fe1-4d0f-82ef-83f4d2dd21f5",
            "columnKey" : "1",
            "columnName" : "Column 1",
            "columnWidth" : "12",
            "seedComponents" : [ ]
          } ]
        },
        "sectionHeight" : 300
      },
      "componentName" : "forceCommunity:section",
      "id" : "04721ced-fb37-48be-9278-36b95ea73718",
      "regions" : [ {
        "components" : [ {
          "componentAttributes" : {
            "recordId" : "{!recordId}"
          },
          "componentName" : "forceCommunity:recordHeadline",
          "id" : "5b43621e-965b-4c1f-a951-f6404788698d",
          "renderPriority" : "NEUTRAL",
          "renditionMap" : { },
          "type" : "component"
        }, {
          "componentAttributes" : {
            "richTextValue" : "<p style=\"text-align: center;\"><img class=\"sfdcCbImage\" src=\"{!contentAsset.HMP_Headline_2.1}\" /></p>"
          },
          "componentName" : "forceCommunity:richTextInline",
          "id" : "9d9f92dd-b53d-4ef2-88b4-1c350f64bf20",
          "renderPriority" : "NEUTRAL",
          "renditionMap" : {
            "fr" : "1694c604-db1d-4fbf-8e33-7056e9fc54e3"
          },
          "renditions" : [ {
            "id" : "1694c604-db1d-4fbf-8e33-7056e9fc54e3",
            "renditionValue" : {
              "componentAttributes" : {
                "richTextValue" : "<p style=\"text-align: center;\"><img class=\"sfdcCbImage\" src=\"{!contentAsset.HMP_Headline_5.1}\" /></p>"
              }
            },
            "type" : "renditionComponent"
          } ],
          "type" : "component"
        }, {
          "componentAttributes" : {
            "tabsetConfig" : {
              "UUID" : "b08361ed-2072-4bd6-9be2-669f2a09850a",
              "activeTab" : "",
              "tabs" : [ {
                "UUID" : "082b39c5-1f4a-40f9-9af8-513cdc61408c",
                "allowGuestUser" : false,
                "locked" : false,
                "seedComponents" : [ ],
                "tabKey" : "1",
                "tabName" : "1. Conditions d'utilisation"
              }, {
                "UUID" : "7fa4cc9a-ea85-496d-a858-475ce0952ca6",
                "allowGuestUser" : false,
                "locked" : false,
                "seedComponents" : [ ],
                "tabKey" : "4afa1",
                "tabName" : "2. Déclaration des taxes"
              }, {
                "UUID" : "66b07a31-34b9-4dc8-a21b-840a56bd32b9",
                "allowGuestUser" : false,
                "locked" : false,
                "seedComponents" : [ ],
                "tabKey" : "cf1dc",
                "tabName" : "3. Typologie de déclaration"
              }, {
                "UUID" : "1672182e-9a07-4cf0-9e70-5a8bd2ff30f3",
                "allowGuestUser" : false,
                "locked" : false,
                "seedComponents" : [ ],
                "tabKey" : "c991e",
                "tabName" : "4. Grille Tarifaire"
              }, {
                "UUID" : "2eeaaad1-5545-4c8a-95c0-4043a80f53e1",
                "allowGuestUser" : false,
                "locked" : false,
                "seedComponents" : [ ],
                "tabKey" : "80a9b",
                "tabName" : "5.Demande d'approbation"
              }, {
                "UUID" : "29776614-6857-4b75-aa72-eb26d521ca9a",
                "allowGuestUser" : false,
                "locked" : false,
                "seedComponents" : [ ],
                "tabKey" : "3",
                "tabName" : "Collaboration"
              } ],
              "useOverflowMenu" : false
            }
          },
          "componentName" : "forceCommunity:tabset",
          "id" : "b08361ed-2072-4bd6-9be2-669f2a09850a",
          "regions" : [ {
            "components" : [ {
              "componentAttributes" : {
                "flowArguments" : "[{\"label\":\"recordId\",\"dataType\":\"String\",\"supportsRecordId\":true,\"value\":\"{!Record.Id}\"}]",
                "flowLayout" : "oneColumn",
                "flowName" : "SCREEN_Price_List_Statement_Terms_of_Use"
              },
              "componentName" : "forceCommunity:flowCommunity",
              "id" : "233c18e6-164b-4a65-8c02-d36e882315e4",
              "renditionMap" : { },
              "type" : "component"
            }, {
              "componentAttributes" : {
                "enableInlineEdit" : false,
                "filterName" : "Recent",
                "layout" : "FULL",
                "pageSize" : 25,
                "scope" : "ULiT_Negoptim__Contract_Document__c",
                "showActionBar" : false,
                "showChartsPanel" : false,
                "showDisplay" : "grid",
                "showFilterPanel" : false,
                "showImageIcon" : false,
                "showManualRefreshButton" : false,
                "showObjectName" : false,
                "showPinnedList" : true,
                "showSearchBar" : false
              },
              "componentName" : "forceCommunity:objectHome",
              "id" : "22a77d74-97ed-47e0-b647-aeea248f9d5c",
              "renditionMap" : { },
              "type" : "component"
            }, {
              "componentAttributes" : {
                "relatedListApiName" : "Suivi_Documentaire__r",
                "relatedListComponentOverride" : "ADVGRID",
                "width" : "MEDIUM"
              },
              "componentName" : "forceCommunity:responsiveRelatedListSingle",
              "id" : "c589f48a-400a-42e4-906b-99a7e4194642",
              "renditionMap" : { },
              "type" : "component"
            } ],
            "id" : "082b39c5-1f4a-40f9-9af8-513cdc61408c",
            "regionLabel" : "1. Conditions d'utilisation",
            "regionName" : "1",
            "renditionMap" : {
              "fr" : "2873e4b2-2a1a-4c4f-af15-695dc01d432b"
            },
            "renditions" : [ {
              "id" : "2873e4b2-2a1a-4c4f-af15-695dc01d432b",
              "renditionValue" : {
                "regionLabel" : "1. Conditions d'utilisation"
              },
              "type" : "renditionComponent"
            } ],
            "type" : "region"
          }, {
            "components" : [ {
              "componentAttributes" : {
                "flowArguments" : "[{\"label\":\"recordId\",\"dataType\":\"String\",\"supportsRecordId\":true,\"value\":\"{!Record.Id}\"}]",
                "flowLayout" : "oneColumn",
                "flowName" : "SCREEN_Price_List_Statement_Tax_Confirmation_Improved_Process"
              },
              "componentName" : "forceCommunity:flowCommunity",
              "id" : "01652ea1-8e03-439c-91c5-e9c524b47870",
              "renditionMap" : { },
              "type" : "component"
            }, {
              "componentAttributes" : {
                "relatedListApiName" : "ULiT_Negoptim__Supplier_Taxes_Statements__r",
                "relatedListComponentOverride" : "ADVGRID",
                "width" : "MEDIUM"
              },
              "componentName" : "forceCommunity:responsiveRelatedListSingle",
              "id" : "f691fd0c-d1bc-4c1f-9f00-d189d3ce356b",
              "renditionMap" : { },
              "type" : "component"
            } ],
            "id" : "7fa4cc9a-ea85-496d-a858-475ce0952ca6",
            "regionLabel" : "2. Déclaration des taxes",
            "regionName" : "4afa1",
            "renditionMap" : {
              "fr" : "4f0acb2e-3e1d-469b-91f9-1c6d497beadd"
            },
            "renditions" : [ {
              "id" : "4f0acb2e-3e1d-469b-91f9-1c6d497beadd",
              "renditionValue" : {
                "regionLabel" : "2. Déclaration des taxes"
              },
              "type" : "renditionComponent"
            } ],
            "type" : "region"
          }, {
            "components" : [ {
              "componentAttributes" : {
                "flowArguments" : "[{\"label\":\"recordId\",\"dataType\":\"String\",\"supportsRecordId\":true,\"value\":\"{!Record.Id}\"}]",
                "flowLayout" : "oneColumn",
                "flowName" : "SCREEN_Price_List_Statement_Average_Rate_Input"
              },
              "componentName" : "forceCommunity:flowCommunity",
              "id" : "3ea4db87-7a88-4ca1-af55-86703aa2158b",
              "renditionMap" : { },
              "type" : "component"
            } ],
            "id" : "66b07a31-34b9-4dc8-a21b-840a56bd32b9",
            "regionLabel" : "Nouvel onglet",
            "regionName" : "cf1dc",
            "renditionMap" : {
              "fr" : "702f8602-af79-4a38-a1c2-1320b3fc5a99"
            },
            "renditions" : [ {
              "id" : "702f8602-af79-4a38-a1c2-1320b3fc5a99",
              "renditionValue" : {
                "regionLabel" : "3. Typologie de déclaration"
              },
              "type" : "renditionComponent"
            } ],
            "type" : "region"
          }, {
            "components" : [ {
              "componentAttributes" : {
                "height" : "1000",
                "pageName" : "ULiT_Negoptim__PriceListStatementMatrix",
                "recordId" : "{!recordId}"
              },
              "componentName" : "forceCommunity:visualforcePage",
              "id" : "f09df1ce-a3fb-424a-8cf9-c7f63f81ad97",
              "renditionMap" : { },
              "type" : "component"
            } ],
            "id" : "1672182e-9a07-4cf0-9e70-5a8bd2ff30f3",
            "regionLabel" : "Nouvel onglet",
            "regionName" : "c991e",
            "renditionMap" : {
              "fr" : "9b5d1be9-a431-4ac0-9e01-b874fa78ce53"
            },
            "renditions" : [ {
              "id" : "9b5d1be9-a431-4ac0-9e01-b874fa78ce53",
              "renditionValue" : {
                "regionLabel" : "4. Grille Tarifaire"
              },
              "type" : "renditionComponent"
            } ],
            "type" : "region"
          }, {
            "components" : [ {
              "componentAttributes" : {
                "flowArguments" : "[{\"label\":\"recordId\",\"dataType\":\"String\",\"supportsRecordId\":true,\"value\":\"{!Record.Id}\"}]",
                "flowLayout" : "oneColumn",
                "flowName" : "SCREEN_Price_List_Statement_Average_Rate_Input"
              },
              "componentName" : "forceCommunity:flowCommunity",
              "id" : "d3ab0c80-94bb-435f-ab0c-893511a4cae3",
              "renditionMap" : { },
              "type" : "component"
            }, {
              "componentAttributes" : {
                "relatedListApiName" : "ULiT_Negoptim__PriceList_Statement_Details__r",
                "relatedListComponentOverride" : "ADVGRID",
                "width" : "MEDIUM"
              },
              "componentName" : "forceCommunity:responsiveRelatedListSingle",
              "id" : "9037a92c-4cf5-48cc-9df6-878f65bd2719",
              "renditionMap" : { },
              "type" : "component"
            } ],
            "id" : "2eeaaad1-5545-4c8a-95c0-4043a80f53e1",
            "regionLabel" : "Nouvel onglet",
            "regionName" : "80a9b",
            "renditionMap" : {
              "fr" : "d4e0ae94-8bdf-4658-93a2-475e1666eed9"
            },
            "renditions" : [ {
              "id" : "d4e0ae94-8bdf-4658-93a2-475e1666eed9",
              "renditionValue" : {
                "regionLabel" : "5.Demande d'approbation"
              },
              "type" : "renditionComponent"
            } ],
            "type" : "region"
          }, {
            "components" : [ {
              "componentAttributes" : {
                "context" : "RECORD",
                "recordId" : "{!recordId}",
                "width" : "MEDIUM"
              },
              "componentName" : "forceCommunity:feedPublisher",
              "id" : "cc636e3b-0cee-4308-ac3b-c4038422cc81",
              "renditionMap" : { },
              "type" : "component"
            }, {
              "componentAttributes" : {
                "canChangeSorting" : true,
                "defaultFilter" : "",
                "defaultSortOrderHomeFeed" : "Relevance",
                "defaultSortOrderTopicsFeed" : "Relevance",
                "feedDesign" : "DEFAULT",
                "hasFeedSearch" : true,
                "subjectId" : "{!recordId}",
                "type" : "Record"
              },
              "componentName" : "forceCommunity:forceCommunityFeed",
              "id" : "3824131e-2249-4585-b085-f1db1923d980",
              "renditionMap" : { },
              "type" : "component"
            } ],
            "id" : "29776614-6857-4b75-aa72-eb26d521ca9a",
            "regionLabel" : "Collaboration",
            "regionName" : "3",
            "renditionMap" : {
              "fr" : "01e939fb-fff1-4e29-98bd-3cfb578e41ed"
            },
            "renditions" : [ {
              "id" : "01e939fb-fff1-4e29-98bd-3cfb578e41ed",
              "renditionValue" : {
                "regionLabel" : "Collaboration"
              },
              "type" : "renditionComponent"
            } ],
            "type" : "region"
          } ],
          "renderPriority" : "NEUTRAL",
          "renditionMap" : { },
          "type" : "component"
        } ],
        "id" : "210483a3-6fe1-4d0f-82ef-83f4d2dd21f5",
        "regionLabel" : "Column 1",
        "regionName" : "1",
        "renditionMap" : { },
        "type" : "region"
      } ],
      "renderPriority" : "NEUTRAL",
      "renditionMap" : { },
      "type" : "component"
    } ],
    "id" : "7466c892-1ec3-4cb7-aa79-479b47b81f53",
    "regionName" : "content",
    "type" : "region"
  }, {
    "components" : [ {
      "componentAttributes" : {
        "customHeadTags" : "",
        "description" : "",
        "title" : "{!Record._Object}: {!Record._Title}"
      },
      "componentName" : "forceCommunity:seoAssistant",
      "id" : "6493c192-b60f-42df-be76-a2c56a2ab814",
      "renditionMap" : { },
      "type" : "component"
    } ],
    "id" : "f7f27d30-9eb1-495a-baf2-948788c4a00e",
    "regionName" : "sfdcHiddenRegion",
    "type" : "region"
  } ],
  "themeLayoutType" : "Inner",
  "type" : "view",
  "viewType" : "detail-a1O"
}