{
  "appPageId" : "63d16848-c106-4c0c-8e45-da8e705cdeb9",
  "componentName" : "siteforce:sldsOneColLayout",
  "id" : "0cb55fb7-668c-4baf-9d28-ec212c1c547f",
  "label" : "Price List Statement Liste associée",
  "regions" : [ {
    "id" : "d2ea1237-ac17-4f01-925a-ac8a584b7040",
    "regionName" : "header",
    "type" : "region"
  }, {
    "components" : [ {
      "componentAttributes" : {
        "customTitle" : "",
        "parentRecordId" : "{!recordId}",
        "relatedListName" : "{!relationshipApiName}",
        "showBreadCrumbs" : true,
        "showCustomTitle" : false,
        "showManualRefreshButton" : true,
        "showRowNumbers" : true
      },
      "componentName" : "forceCommunity:relatedList",
      "id" : "9379c13d-1ea2-4f64-95de-e65178f109f3",
      "renderPriority" : "NEUTRAL",
      "renditionMap" : { },
      "type" : "component"
    } ],
    "id" : "25533ce5-8f04-4d65-b7ec-fd1cbe433504",
    "regionName" : "content",
    "type" : "region"
  }, {
    "id" : "42a31d03-4ec9-4c6b-b43d-f090155a8eb6",
    "regionName" : "footer",
    "type" : "region"
  } ],
  "themeLayoutType" : "Inner",
  "type" : "view",
  "viewType" : "relatedlist-a1O"
}