{
  "appPageId" : "63d16848-c106-4c0c-8e45-da8e705cdeb9",
  "componentName" : "siteforce:dynamicLayout",
  "id" : "d1e64303-60c6-4b45-b27f-d8818ff7d8a4",
  "label" : "Price List - Load Taxes",
  "regions" : [ {
    "components" : [ {
      "componentAttributes" : {
        "background" : "background: rgba(0,0,0,0)",
        "backgroundOverlay" : "rgba(0,0,0,0.5)",
        "contentAreaWidth" : 100,
        "sectionConfig" : {
          "UUID" : "ab8774c6-2d6a-4c4e-bc1a-5c1a9ec1f406",
          "columns" : [ {
            "UUID" : "d21fbc1c-6a83-4f92-9e66-c3699af7e899",
            "columnKey" : "1",
            "columnName" : "Column 1",
            "columnWidth" : "12",
            "seedComponents" : [ ]
          } ]
        },
        "sectionHeight" : 300
      },
      "componentName" : "forceCommunity:section",
      "id" : "ab8774c6-2d6a-4c4e-bc1a-5c1a9ec1f406",
      "regions" : [ {
        "components" : [ {
          "componentAttributes" : {
            "recordId" : "{!recordId}"
          },
          "componentName" : "forceCommunity:recordHeadline",
          "id" : "0238f3b0-ca20-41fd-9ecf-88a02ad646a0",
          "renderPriority" : "NEUTRAL",
          "renditionMap" : { },
          "type" : "component"
        }, {
          "componentAttributes" : {
            "richTextValue" : "<p style=\"text-align: center;\"><img class=\"sfdcCbImage\" src=\"{!contentAsset.HMP_Headline_2.1}\" /></p>"
          },
          "componentName" : "forceCommunity:richTextInline",
          "id" : "10330a70-bea3-4061-ad7d-a153731e8ecd",
          "renderPriority" : "NEUTRAL",
          "renditionMap" : { },
          "type" : "component"
        }, {
          "componentAttributes" : {
            "tabsetConfig" : {
              "UUID" : "bf14e4a0-f9fb-4f66-aecc-6bf09bf2ec86",
              "activeTab" : "",
              "tabs" : [ {
                "UUID" : "e8457ede-ee16-41b9-a465-fe256aae8fff",
                "allowGuestUser" : false,
                "locked" : false,
                "seedComponents" : [ ],
                "tabKey" : "1",
                "tabName" : "1. Conditions d'utilisation"
              }, {
                "UUID" : "b3a6c46f-de06-4ba5-947a-aa0be65864ac",
                "allowGuestUser" : false,
                "locked" : false,
                "seedComponents" : [ ],
                "tabKey" : "4afa1",
                "tabName" : "2. Déclaration des taxes"
              }, {
                "UUID" : "7f5e8d1c-b9a0-401d-a479-afc1152edac3",
                "allowGuestUser" : false,
                "locked" : false,
                "seedComponents" : [ ],
                "tabKey" : "3",
                "tabName" : "Collaboration"
              } ],
              "useOverflowMenu" : false
            }
          },
          "componentName" : "forceCommunity:tabset",
          "id" : "bf14e4a0-f9fb-4f66-aecc-6bf09bf2ec86",
          "regions" : [ {
            "components" : [ {
              "componentAttributes" : {
                "flowArguments" : "[{\"label\":\"recordId\",\"dataType\":\"String\",\"supportsRecordId\":true,\"value\":\"{!Record.Id}\"}]",
                "flowLayout" : "oneColumn",
                "flowName" : "SCREEN_Price_List_Statement_Terms_of_Use"
              },
              "componentName" : "forceCommunity:flowCommunity",
              "id" : "8c1e7c6b-1b00-4eb2-bc55-55a12b63c5f7",
              "renditionMap" : { },
              "type" : "component"
            }, {
              "componentAttributes" : {
                "enableInlineEdit" : true,
                "filterName" : "Recent",
                "layout" : "FULL",
                "pageSize" : 25,
                "scope" : "ULiT_Negoptim__Contract_Document__c",
                "showActionBar" : true,
                "showChartsPanel" : true,
                "showDisplay" : "showall",
                "showFilterPanel" : true,
                "showImageIcon" : true,
                "showManualRefreshButton" : true,
                "showObjectName" : true,
                "showPinnedList" : true,
                "showSearchBar" : true
              },
              "componentName" : "forceCommunity:objectHome",
              "id" : "25711a5d-b36e-454a-8453-480fba9dd783",
              "renditionMap" : { },
              "type" : "component"
            }, {
              "componentAttributes" : {
                "relatedListApiName" : "Suivi_Documentaire__r",
                "relatedListComponentOverride" : "ADVGRID",
                "width" : "MEDIUM"
              },
              "componentName" : "forceCommunity:responsiveRelatedListSingle",
              "id" : "38e86ea2-ebe0-4616-9dc8-2bb42f809e72",
              "renditionMap" : { },
              "type" : "component"
            } ],
            "id" : "e8457ede-ee16-41b9-a465-fe256aae8fff",
            "regionLabel" : "1. Conditions d'utilisation",
            "regionName" : "1",
            "renditionMap" : { },
            "type" : "region"
          }, {
            "components" : [ {
              "componentAttributes" : {
                "flowArguments" : "[{\"label\":\"recordId\",\"dataType\":\"String\",\"supportsRecordId\":true,\"value\":\"{!Record.Id}\"}]",
                "flowLayout" : "oneColumn",
                "flowName" : "SCREEN_Price_List_Statement_Tax_Confirmation_Improved_Process"
              },
              "componentName" : "forceCommunity:flowCommunity",
              "id" : "0c8f8ee9-111e-4c6d-bda3-16d68baf81cf",
              "renditionMap" : { },
              "type" : "component"
            }, {
              "componentAttributes" : {
                "relatedListApiName" : "ULiT_Negoptim__Supplier_Taxes_Statements__r",
                "relatedListComponentOverride" : "ADVGRID",
                "width" : "MEDIUM"
              },
              "componentName" : "forceCommunity:responsiveRelatedListSingle",
              "id" : "6614653e-9b72-4a01-a3a7-ab386514614a",
              "renditionMap" : { },
              "type" : "component"
            } ],
            "id" : "b3a6c46f-de06-4ba5-947a-aa0be65864ac",
            "regionLabel" : "2. Déclaration des taxes",
            "regionName" : "4afa1",
            "renditionMap" : { },
            "type" : "region"
          }, {
            "components" : [ {
              "componentAttributes" : {
                "context" : "RECORD",
                "recordId" : "{!recordId}",
                "width" : "MEDIUM"
              },
              "componentName" : "forceCommunity:feedPublisher",
              "id" : "86c4db83-a833-4f7b-9ee5-228ed81b6167",
              "renditionMap" : { },
              "type" : "component"
            }, {
              "componentAttributes" : {
                "canChangeSorting" : true,
                "defaultFilter" : "",
                "defaultSortOrderHomeFeed" : "Relevance",
                "defaultSortOrderTopicsFeed" : "Relevance",
                "feedDesign" : "DEFAULT",
                "hasFeedSearch" : true,
                "subjectId" : "{!recordId}",
                "type" : "Record"
              },
              "componentName" : "forceCommunity:forceCommunityFeed",
              "id" : "914c55ad-307b-4368-9526-fb1575203dfc",
              "renditionMap" : { },
              "type" : "component"
            } ],
            "id" : "7f5e8d1c-b9a0-401d-a479-afc1152edac3",
            "regionLabel" : "Collaboration",
            "regionName" : "3",
            "renditionMap" : { },
            "type" : "region"
          } ],
          "renderPriority" : "NEUTRAL",
          "renditionMap" : { },
          "type" : "component"
        } ],
        "id" : "d21fbc1c-6a83-4f92-9e66-c3699af7e899",
        "regionLabel" : "Column 1",
        "regionName" : "1",
        "renditionMap" : { },
        "type" : "region"
      } ],
      "renderPriority" : "NEUTRAL",
      "renditionMap" : { },
      "type" : "component"
    } ],
    "id" : "9ad830a3-08aa-43d8-8427-23a7cafd3ad7",
    "regionName" : "content",
    "type" : "region"
  }, {
    "components" : [ {
      "componentAttributes" : {
        "customHeadTags" : "",
        "description" : "",
        "title" : "{!Record._Object}: {!Record._Title}"
      },
      "componentName" : "forceCommunity:seoAssistant",
      "id" : "ee07eac0-768d-44b0-9ef8-deb36805e750",
      "renditionMap" : { },
      "type" : "component"
    } ],
    "id" : "2e517620-f509-4cc1-aa3e-715777707776",
    "regionName" : "sfdcHiddenRegion",
    "type" : "region"
  } ],
  "themeLayoutType" : "Inner",
  "type" : "view",
  "viewType" : "detail-a1O"
}