{
  "appPageId" : "63d16848-c106-4c0c-8e45-da8e705cdeb9",
  "componentName" : "siteforce:dynamicLayout",
  "id" : "1c5096ff-9275-4817-b791-322011003579",
  "label" : "Price List - Confirm Participation",
  "regions" : [ {
    "components" : [ {
      "componentAttributes" : {
        "background" : "background: rgba(0,0,0,0)",
        "backgroundOverlay" : "rgba(0,0,0,0.5)",
        "contentAreaWidth" : 100,
        "sectionConfig" : {
          "UUID" : "1bff7ddc-ee95-43b7-b5bc-a25ef5359eef",
          "columns" : [ {
            "UUID" : "08c56643-4259-44bd-95f3-b65876e95f94",
            "columnKey" : "1",
            "columnName" : "Column 1",
            "columnWidth" : "12",
            "seedComponents" : [ ]
          } ]
        },
        "sectionHeight" : 300
      },
      "componentName" : "forceCommunity:section",
      "id" : "1bff7ddc-ee95-43b7-b5bc-a25ef5359eef",
      "regions" : [ {
        "components" : [ {
          "componentAttributes" : {
            "recordId" : "{!recordId}"
          },
          "componentName" : "forceCommunity:recordHeadline",
          "id" : "68657d30-cce9-4a55-bfbb-cd735fa87076",
          "renderPriority" : "NEUTRAL",
          "renditionMap" : { },
          "type" : "component"
        }, {
          "componentAttributes" : {
            "richTextValue" : "<p style=\"text-align: center;\"><img class=\"sfdcCbImage\" src=\"{!contentAsset.HMP_Headline_1.1}\" /></p>"
          },
          "componentName" : "forceCommunity:richTextInline",
          "id" : "82e80ac6-be94-416b-82b9-ec72e50c54d8",
          "renderPriority" : "NEUTRAL",
          "renditionMap" : { },
          "type" : "component"
        }, {
          "componentAttributes" : {
            "tabsetConfig" : {
              "UUID" : "3e5da59a-aa62-4681-9541-2cc158357534",
              "activeTab" : "",
              "tabs" : [ {
                "UUID" : "5fbef8e4-27b4-4c31-94af-f7b4634bb606",
                "allowGuestUser" : false,
                "locked" : false,
                "seedComponents" : [ ],
                "tabKey" : "1",
                "tabName" : "1. Conditions d'utilisation"
              }, {
                "UUID" : "fdf8c23f-9279-49b4-97b4-935def8d8c30",
                "allowGuestUser" : false,
                "locked" : false,
                "seedComponents" : [ ],
                "tabKey" : "3",
                "tabName" : "Collaboration"
              } ],
              "useOverflowMenu" : false
            }
          },
          "componentName" : "forceCommunity:tabset",
          "id" : "3e5da59a-aa62-4681-9541-2cc158357534",
          "regions" : [ {
            "components" : [ {
              "componentAttributes" : {
                "flowArguments" : "[{\"label\":\"recordId\",\"dataType\":\"String\",\"supportsRecordId\":true,\"value\":\"{!Record.Id}\"}]",
                "flowLayout" : "oneColumn",
                "flowName" : "SCREEN_Price_List_Statement_Terms_of_Use"
              },
              "componentName" : "forceCommunity:flowCommunity",
              "id" : "f19e952d-b6c7-4b71-80b4-a77ec5d74e1c",
              "renditionMap" : { },
              "type" : "component"
            }, {
              "componentAttributes" : {
                "enableInlineEdit" : true,
                "filterName" : "Recent",
                "layout" : "FULL",
                "pageSize" : 25,
                "scope" : "ULiT_Negoptim__Contract_Document__c",
                "showActionBar" : true,
                "showChartsPanel" : true,
                "showDisplay" : "showall",
                "showFilterPanel" : true,
                "showImageIcon" : true,
                "showManualRefreshButton" : true,
                "showObjectName" : true,
                "showPinnedList" : true,
                "showSearchBar" : true
              },
              "componentName" : "forceCommunity:objectHome",
              "id" : "206e85fc-d93d-4d0b-965a-8a74b850c510",
              "renditionMap" : { },
              "type" : "component"
            }, {
              "componentAttributes" : {
                "relatedListApiName" : "Suivi_Documentaire__r",
                "relatedListComponentOverride" : "ADVGRID",
                "width" : "MEDIUM"
              },
              "componentName" : "forceCommunity:responsiveRelatedListSingle",
              "id" : "0e56eeb8-8010-4b83-9992-ef08d587a95c",
              "renditionMap" : { },
              "type" : "component"
            } ],
            "id" : "5fbef8e4-27b4-4c31-94af-f7b4634bb606",
            "regionLabel" : "1. Conditions d'utilisation",
            "regionName" : "1",
            "renditionMap" : { },
            "type" : "region"
          }, {
            "components" : [ {
              "componentAttributes" : {
                "context" : "RECORD",
                "recordId" : "{!recordId}",
                "width" : "MEDIUM"
              },
              "componentName" : "forceCommunity:feedPublisher",
              "id" : "387c8bed-077c-4bad-b651-9c33762d02bf",
              "renditionMap" : { },
              "type" : "component"
            }, {
              "componentAttributes" : {
                "canChangeSorting" : true,
                "defaultFilter" : "",
                "defaultSortOrderHomeFeed" : "Relevance",
                "defaultSortOrderTopicsFeed" : "Relevance",
                "feedDesign" : "DEFAULT",
                "hasFeedSearch" : true,
                "subjectId" : "{!recordId}",
                "type" : "Record"
              },
              "componentName" : "forceCommunity:forceCommunityFeed",
              "id" : "3caca5c0-e0f5-46f9-901c-1f40043f7aa2",
              "renditionMap" : { },
              "type" : "component"
            } ],
            "id" : "fdf8c23f-9279-49b4-97b4-935def8d8c30",
            "regionLabel" : "Collaboration",
            "regionName" : "3",
            "renditionMap" : { },
            "type" : "region"
          } ],
          "renderPriority" : "NEUTRAL",
          "renditionMap" : { },
          "type" : "component"
        } ],
        "id" : "08c56643-4259-44bd-95f3-b65876e95f94",
        "regionLabel" : "Column 1",
        "regionName" : "1",
        "renditionMap" : { },
        "type" : "region"
      } ],
      "renderPriority" : "NEUTRAL",
      "renditionMap" : { },
      "type" : "component"
    } ],
    "id" : "7ef9d229-7396-4c31-82fb-af210eb6ca8b",
    "regionName" : "content",
    "type" : "region"
  }, {
    "components" : [ {
      "componentAttributes" : {
        "customHeadTags" : "",
        "description" : "",
        "title" : "{!Record._Object}: {!Record._Title}"
      },
      "componentName" : "forceCommunity:seoAssistant",
      "id" : "e73c1194-97a9-45fc-a9e4-cceed11b9e23",
      "renditionMap" : { },
      "type" : "component"
    } ],
    "id" : "b0bccf29-3778-4894-813e-06a1f7067249",
    "regionName" : "sfdcHiddenRegion",
    "type" : "region"
  } ],
  "themeLayoutType" : "Inner",
  "type" : "view",
  "viewType" : "detail-a1O"
}