{
  "appPageId" : "63d16848-c106-4c0c-8e45-da8e705cdeb9",
  "componentName" : "siteforce:sldsOneColLayout",
  "id" : "3c155b34-b023-4d67-bc95-5109164f93e0",
  "label" : "Record Detail",
  "regions" : [ {
    "components" : [ {
      "componentAttributes" : {
        "recordId" : "{!recordId}"
      },
      "componentName" : "forceCommunity:recordHeadline",
      "id" : "930bb0fa-3a04-45a6-871c-7d6c6a6c1810",
      "renderPriority" : "NEUTRAL",
      "renditionMap" : { },
      "type" : "component"
    }, {
      "componentAttributes" : {
        "pageSize" : 25
      },
      "componentName" : "forceCommunity:filesList",
      "id" : "8c4707f1-22eb-4c36-a769-3285b0505a2e",
      "renderPriority" : "NEUTRAL",
      "renditionMap" : { },
      "type" : "component"
    } ],
    "id" : "12d7065c-578d-457d-b58c-792d8476a94f",
    "regionName" : "header",
    "type" : "region"
  }, {
    "components" : [ {
      "componentAttributes" : {
        "recordId" : "{!recordId}"
      },
      "componentName" : "forceCommunity:recordDetail",
      "id" : "1b7aa5d2-2bea-4806-9675-cc23f124c4a4",
      "renderPriority" : "NEUTRAL",
      "renditionMap" : { },
      "type" : "component"
    } ],
    "id" : "d3206c62-7b83-43ea-bdbc-2d35b46d5ec4",
    "regionName" : "content",
    "type" : "region"
  }, {
    "id" : "39aeeeed-755c-47b6-961f-69777bd109e3",
    "regionName" : "footer",
    "type" : "region"
  }, {
    "components" : [ {
      "componentAttributes" : {
        "customHeadTags" : "",
        "description" : "",
        "title" : "{!Record._Object}: {!Record._Title}"
      },
      "componentName" : "forceCommunity:seoAssistant",
      "id" : "986b950c-9c25-4837-9478-4f739b0b4e94",
      "renditionMap" : { },
      "type" : "component"
    } ],
    "id" : "5c8f2f00-3955-496f-b00a-7af7e7dbe826",
    "regionName" : "sfdcHiddenRegion",
    "type" : "region"
  } ],
  "themeLayoutType" : "Inner",
  "type" : "view",
  "viewType" : "detail"
}