{
  "appPageId" : "63d16848-c106-4c0c-8e45-da8e705cdeb9",
  "componentName" : "siteforce:sldsOneColLayout",
  "id" : "890f2d63-9e20-48f9-95af-0633d73c7ca5",
  "label" : "Request For x Liste associée",
  "regions" : [ {
    "id" : "ed090363-3aa9-46b8-a5e0-9cdd611d8cf8",
    "regionName" : "header",
    "type" : "region"
  }, {
    "components" : [ {
      "componentAttributes" : {
        "customTitle" : "",
        "parentRecordId" : "{!recordId}",
        "relatedListName" : "{!relationshipApiName}",
        "showBreadCrumbs" : true,
        "showCustomTitle" : false,
        "showManualRefreshButton" : true,
        "showRowNumbers" : true
      },
      "componentName" : "forceCommunity:relatedList",
      "id" : "54333422-d640-432c-bbb7-c9c2eaeb1da5",
      "renderPriority" : "NEUTRAL",
      "renditionMap" : { },
      "type" : "component"
    } ],
    "id" : "5a7f3dca-5c7b-468b-ac7c-5b8bea45a7ee",
    "regionName" : "content",
    "type" : "region"
  }, {
    "id" : "15e293b2-4547-4e2f-826d-d334677fdaa9",
    "regionName" : "footer",
    "type" : "region"
  } ],
  "themeLayoutType" : "Inner",
  "type" : "view",
  "viewType" : "relatedlist-a1X"
}